<?xml version="1.0" encoding="utf-8"?>
<!-- Generator: Adobe Illustrator 22.0.1, SVG Export Plug-In . SVG Version: 6.00 Build 0)  -->
<svg version="1.1" id="Layer_1" xmlns="http://www.w3.org/2000/svg" xmlns:xlink="http://www.w3.org/1999/xlink" x="0px" y="0px"
	 viewBox="0 0 1000 930" style="enable-background:new 0 0 1000 930;" xml:space="preserve">
<style type="text/css">
	.st0{fill:#6D3E4A;fill-opacity:0;}
	.st1{fill:url(#SVGID_1_);}
	.st2{fill:url(#SVGID_2_);}
	.st3{fill:url(#SVGID_3_);}
	.st4{fill:url(#SVGID_4_);}
	.st5{fill:url(#SVGID_5_);}
	.st6{fill:#24126A;}
	.st7{opacity:0.51;}
	.st8{fill:#453C9E;}
	.st9{fill:url(#SVGID_6_);}
	.st10{fill:url(#SVGID_8_);}
	.st11{fill:#FFFFFF;}
	.st12{fill:#2842A2;}
	.st13{fill:#ADB1F2;}
	.st14{fill:#9198DB;}
	.st15{fill:url(#SVGID_9_);}
	.st16{opacity:0.11;}
	.st17{clip-path:url(#SVGID_10_);}
	.st18{fill:url(#SVGID_11_);}
	.st19{fill:url(#SVGID_12_);}
	.st20{fill:#42E8E0;}
	.st21{fill:url(#SVGID_13_);}
	.st22{fill:url(#SVGID_14_);}
	.st23{fill:url(#SVGID_15_);}
	.st24{fill:url(#SVGID_16_);}
	.st25{fill:url(#SVGID_17_);}
	.st26{fill:url(#SVGID_18_);}
	.st27{fill:url(#SVGID_19_);}
	.st28{fill:url(#SVGID_20_);}
	.st29{fill:url(#SVGID_21_);}
	.st30{fill:#160A5B;}
	.st31{fill:url(#SVGID_22_);}
	.st32{fill:url(#SVGID_23_);}
	.st33{fill:#F0F6FF;}
	.st34{fill:#FCD1C5;}
	.st35{fill:#4846A5;}
	.st36{fill:#AA8383;}
	.st37{fill:#C4CCD6;}
	.st38{fill:#E2B1A6;}
	.st39{fill:url(#SVGID_24_);}
	.st40{fill:#936D6D;}
	.st41{opacity:0.3;fill:#4846A5;}
	.st42{opacity:0.1;fill:#4846A5;}
	.st43{fill:url(#SVGID_25_);}
	.st44{fill:url(#SVGID_26_);}
	.st45{fill:url(#SVGID_27_);}
	.st46{opacity:0.5;fill:#FFFFFF;}
	.st47{fill:#0F054C;}
	.st48{opacity:0.5;fill:url(#SVGID_28_);}
	.st49{opacity:0.5;fill:url(#SVGID_29_);}
	.st50{opacity:0.5;fill:url(#SVGID_30_);}
	.st51{opacity:0.5;fill:url(#SVGID_31_);}
	.st52{opacity:0.5;fill:url(#SVGID_32_);}
	.st53{opacity:0.5;fill:url(#SVGID_33_);}
</style>
<rect x="0.2" y="-0.3" class="st0" width="997.8" height="928.3"/>
<g>
	
		<linearGradient id="SVGID_1_" gradientUnits="userSpaceOnUse" x1="-756.079" y1="507.066" x2="-622.1832" y2="507.066" gradientTransform="matrix(0.866 0.5 -1 0.5774 1473.8809 385.1095)">
		<stop  offset="0" style="stop-color:#42E8E0"/>
		<stop  offset="0.1507" style="stop-color:#43E3E0"/>
		<stop  offset="0.3285" style="stop-color:#45D5DF"/>
		<stop  offset="0.5199" style="stop-color:#49BDDD"/>
		<stop  offset="0.7209" style="stop-color:#4E9CDB"/>
		<stop  offset="0.9274" style="stop-color:#5472D8"/>
		<stop  offset="1" style="stop-color:#5761D7"/>
	</linearGradient>
	<path class="st1" d="M425.6,367.8c-0.4,0-0.8-0.1-1.2-0.3l-111.1-64.1c-1.2-0.7-1.6-2.2-0.9-3.3c0.7-1.2,2.2-1.6,3.3-0.9
		l111.1,64.1c1.2,0.7,1.6,2.2,0.9,3.3C427.2,367.4,426.4,367.8,425.6,367.8z"/>
	
		<linearGradient id="SVGID_2_" gradientUnits="userSpaceOnUse" x1="325.3302" y1="2437.4036" x2="522.8654" y2="2437.4036" gradientTransform="matrix(1 0 0 -1 -298.1047 2844.7776)">
		<stop  offset="0" style="stop-color:#42E8E0"/>
		<stop  offset="0.1507" style="stop-color:#43E3E0"/>
		<stop  offset="0.3285" style="stop-color:#45D5DF"/>
		<stop  offset="0.5199" style="stop-color:#49BDDD"/>
		<stop  offset="0.7209" style="stop-color:#4E9CDB"/>
		<stop  offset="0.9274" style="stop-color:#5472D8"/>
		<stop  offset="1" style="stop-color:#5761D7"/>
	</linearGradient>
	<path class="st2" d="M222.1,513.8c-0.4,0-0.9-0.1-1.3-0.4L28.5,401.5c-0.8-0.5-1.3-1.4-1.3-2.3c0-0.9,0.5-1.8,1.4-2.3l176.2-95.6
		c1.3-0.7,2.9-0.2,3.5,1c0.7,1.3,0.2,2.9-1,3.5L35.2,399.3l188.3,109.6c1.2,0.7,1.7,2.3,0.9,3.6C223.9,513.3,223,513.8,222.1,513.8z
		"/>
	<g>
		<g>
			<g>
				<g>
					<g>
						<g>
							<g>
								
									<linearGradient id="SVGID_3_" gradientUnits="userSpaceOnUse" x1="290.5556" y1="495.5006" x2="810.7139" y2="495.5006" gradientTransform="matrix(-1 0 0 1 1143.5524 0)">
									<stop  offset="0" style="stop-color:#42E8E0"/>
									<stop  offset="0.1507" style="stop-color:#43E3E0"/>
									<stop  offset="0.3285" style="stop-color:#45D5DF"/>
									<stop  offset="0.5199" style="stop-color:#49BDDD"/>
									<stop  offset="0.7209" style="stop-color:#4E9CDB"/>
									<stop  offset="0.9274" style="stop-color:#5472D8"/>
									<stop  offset="1" style="stop-color:#5761D7"/>
								</linearGradient>
								<path class="st3" d="M642.9,643.6l-306.5-177c-2.2-1.3-3.6-3.6-3.6-6.2c0-2.6,1.3-4.9,3.6-6.2l190.5-110l1.5-0.9
									l321.1,185.4c2.2,1.3,3.6,3.6,3.6,6.2c0,2.6-1.3,4.9-3.6,6.2L672,643.6c-4.5,2.6-9.5,3.9-14.5,3.9
									C652.4,647.5,647.4,646.2,642.9,643.6z M339.4,459.5c-0.5,0.3-0.6,0.8-0.6,1c0,0.3,0.1,0.7,0.6,1l306.5,177
									c7.1,4.1,16,4.1,23.1,0L846.4,536c0.5-0.3,0.6-0.8,0.6-1c0-0.3-0.1-0.7-0.6-1L528.4,350.4L339.4,459.5z"/>
							</g>
							<g>
								<g>
									
										<linearGradient id="SVGID_4_" gradientUnits="userSpaceOnUse" x1="221.364" y1="245.8219" x2="615.6501" y2="245.8219" gradientTransform="matrix(-1 0 0 1 1143.5524 0)">
										<stop  offset="0" style="stop-color:#C0BFF6"/>
										<stop  offset="0.2938" style="stop-color:#C5C4F7"/>
										<stop  offset="0.6399" style="stop-color:#D3D2F9"/>
										<stop  offset="1" style="stop-color:#E9E9FD"/>
									</linearGradient>
									<path class="st4" d="M528,270.3L570.7,17l-3.4-1.4l5.2-3l0,0c1-0.7,2.4-0.6,4,0.3l341.3,197.1c2.8,1.6,4.9,5.8,4.4,8.7
										l-43,255.4c-0.2,1.3-0.9,2.2-1.8,2.6l0,0l-5,2.9l-0.9-4.7l0.3,0.1L532.4,279C529.6,277.4,527.5,273.2,528,270.3z"/>
									
										<linearGradient id="SVGID_5_" gradientUnits="userSpaceOnUse" x1="221.3665" y1="346.9384" x2="289.0693" y2="346.9384" gradientTransform="matrix(-1 0 0 1 1143.5524 0)">
										<stop  offset="0" style="stop-color:#5761D7"/>
										<stop  offset="0.1779" style="stop-color:#5C66D9"/>
										<stop  offset="0.3876" style="stop-color:#6A73DF"/>
										<stop  offset="0.6134" style="stop-color:#8289E8"/>
										<stop  offset="0.849" style="stop-color:#A3A7F5"/>
										<stop  offset="1" style="stop-color:#BCBEFF"/>
									</linearGradient>
									<path class="st5" d="M915.8,216.9l5.6-2.5c0.6,1.4,0.9,2.9,0.7,4.2l-43,255.4c-0.2,1.3-0.9,2.2-1.8,2.6l0,0l-5,2.9
										l-0.9-4.7l0.3,0.1l-17.2-9.9L915.8,216.9z"/>
									<path class="st6" d="M527.1,282.1l341.3,197.1c2.6,1.5,4.9,0.6,5.4-2.1l43-255.4c0.5-2.9-1.6-7.1-4.4-8.7L571,15.9
										c-2.6-1.5-4.9-0.6-5.4,2.1l-43,255.4C522.1,276.3,524.2,280.5,527.1,282.1z"/>
									<g class="st7">
										<polygon class="st8" points="575.5,32.2 904.5,222.2 863.7,462.7 534.9,272.9 										"/>
									</g>
								</g>
								<g>
									
										<linearGradient id="SVGID_6_" gradientUnits="userSpaceOnUse" x1="274.1891" y1="460.6052" x2="831.0501" y2="460.6052" gradientTransform="matrix(-1 0 0 1 1143.5524 0)">
										<stop  offset="0" style="stop-color:#5761D7"/>
										<stop  offset="0.1779" style="stop-color:#5C66D9"/>
										<stop  offset="0.3876" style="stop-color:#6A73DF"/>
										<stop  offset="0.6134" style="stop-color:#8289E8"/>
										<stop  offset="0.849" style="stop-color:#A3A7F5"/>
										<stop  offset="1" style="stop-color:#BCBEFF"/>
									</linearGradient>
									<path class="st9" d="M312.5,403l18.6,9.7l186.8-107.8c3.1-1.8,8.6-1.6,12.2,0.5l322.1,186c3.1-1.7,17.1-8.5,17.1-8.5
										l-6.8,17.8c0,0,0,0,0,0c-0.3,0.8-0.9,1.5-1.9,2.1L663.9,616.3c-3.1,1.8-8.6,1.6-12.2-0.5L322.1,425.5
										c-1.5-0.9-2.4-1.9-2.8-2.9l0,0L312.5,403z"/>
									
										<linearGradient id="SVGID_8_" gradientUnits="userSpaceOnUse" x1="461.2963" y1="442.0374" x2="1018.4539" y2="442.0374" gradientTransform="matrix(-1 0 0 1 1143.5524 0)">
										<stop  offset="0" style="stop-color:#C0BFF6"/>
										<stop  offset="0.2938" style="stop-color:#C5C4F7"/>
										<stop  offset="0.6399" style="stop-color:#D3D2F9"/>
										<stop  offset="1" style="stop-color:#E9E9FD"/>
									</linearGradient>
									<path class="st10" d="M315.4,406.1l337.8,195.1c3.7,2.1,9.3,2.4,12.5,0.5l201.6-116.4c3.2-1.8,2.8-5.1-0.9-7.2L528.6,283
										c-3.7-2.1-9.3-2.4-12.5-0.5L314.5,398.8C311.3,400.7,311.7,403.9,315.4,406.1z"/>
									<path class="st11" d="M315.4,404.1l337.8,195.1c3.7,2.1,9.3,2.4,12.5,0.5l201.6-116.4c1-0.6,1.7-1.4,2-2.2
										c0.5,1.5-0.1,3.1-2,4.1L665.7,601.6c-3.2,1.8-8.8,1.6-12.5-0.5L315.4,406.1c-2.5-1.4-3.4-3.4-2.9-5
										C312.9,402.1,313.8,403.2,315.4,404.1z"/>
									<path class="st12" d="M755.1,558.9v-3.7c0-0.4-0.2-0.5-0.5-0.4l-13.1,7.5c-0.3,0.2-0.5,0.6-0.5,0.9v3.7
										c0,0.4,0.2,0.5,0.5,0.4l13.1-7.5C754.9,559.7,755.1,559.3,755.1,558.9z"/>
									<path class="st12" d="M735.6,570.2v-3.7c0-0.4-0.2-0.5-0.5-0.4l-13.1,7.5c-0.3,0.2-0.5,0.6-0.5,0.9v3.7
										c0,0.4,0.2,0.5,0.5,0.4l13.1-7.5C735.4,571,735.6,570.5,735.6,570.2z"/>
									<path class="st13" d="M814.8,474.3L534,312.2c-1.9-1.1-4.2-1.1-6,0l-100,57.8c-1.4,0.8-1.4,2.9,0,3.7l280.6,162
										c1.9,1.1,4.2,1.1,6,0l100.1-57.8C816.2,477.2,816.2,475.2,814.8,474.3z"/>
									<path class="st14" d="M814.8,478.1l-1,0.6L534,317.1c-1.9-1.1-4.2-1.1-6,0l-99,57.3l-1-0.6c-1.4-0.8-1.4-2.9,0-3.7
										l100-57.8c1.9-1.1,4.2-1.1,6,0l280.7,162.1C816.2,475.2,816.2,477.2,814.8,478.1z"/>
									<g>
										<polygon class="st6" points="520.4,326.9 764.3,467.7 775.1,461.4 531.3,320.6 										"/>
										<polygon class="st6" points="493.8,342.2 722.6,474.3 733.4,468 504.7,336 										"/>
										<polygon class="st6" points="476.5,352.2 745.8,507.7 756.7,501.5 487.4,346 										"/>
										<polygon class="st6" points="459.2,362.2 728.5,517.7 739.4,511.5 470.1,356 										"/>
										<polygon class="st6" points="441.9,372.2 711.2,527.7 722.1,521.5 452.7,366 										"/>
										<polygon class="st6" points="779,476.2 789.9,482.5 800.7,476.2 789.9,469.9 										"/>
										<polygon class="st6" points="740.8,484.8 763.3,497.8 774.1,491.5 751.6,478.6 										"/>
									</g>
									
										<linearGradient id="SVGID_9_" gradientUnits="userSpaceOnUse" x1="555.6503" y1="473.6664" x2="698.2669" y2="473.6664" gradientTransform="matrix(-1 0 0 1 1143.5524 0)">
										<stop  offset="0" style="stop-color:#C0BFF6"/>
										<stop  offset="0.2938" style="stop-color:#C5C4F7"/>
										<stop  offset="0.6399" style="stop-color:#D3D2F9"/>
										<stop  offset="1" style="stop-color:#E9E9FD"/>
									</linearGradient>
									<path class="st15" d="M523.2,513.6l-75.7-43.7c-3-1.7-3-4.5,0-6.2l51.8-29.9c3-1.7,7.8-1.7,10.7,0l75.7,43.7
										c3,1.7,3,4.5,0,6.2l-51.8,29.9C531,515.3,526.2,515.3,523.2,513.6z"/>
									<path class="st14" d="M585.7,480L510,436.3c-3-1.7-7.8-1.7-10.7,0l-51.8,29.9c-0.9,0.5-1.5,1.2-1.9,1.8
										c-0.8-1.5-0.2-3.2,1.9-4.4l51.8-29.9c3-1.7,7.8-1.7,10.7,0l75.7,43.7c2,1.2,2.6,2.9,1.9,4.4
										C587.2,481.2,586.6,480.5,585.7,480z"/>
								</g>
							</g>
							<g class="st16">
								<defs>
									<polygon id="SVGID_7_" class="st16" points="575.5,32.2 904.5,222.2 863.7,462.7 534.9,272.9 									"/>
								</defs>
								<clipPath id="SVGID_10_">
									<use xlink:href="#SVGID_7_"  style="overflow:visible;"/>
								</clipPath>
								<g class="st17">
									
										<linearGradient id="SVGID_11_" gradientUnits="userSpaceOnUse" x1="248.4301" y1="318.5452" x2="805.5877" y2="318.5452" gradientTransform="matrix(-1 0 0 1 1143.5524 0)">
										<stop  offset="0" style="stop-color:#C0BFF6"/>
										<stop  offset="0.2938" style="stop-color:#C5C4F7"/>
										<stop  offset="0.6399" style="stop-color:#D3D2F9"/>
										<stop  offset="1" style="stop-color:#E9E9FD"/>
									</linearGradient>
									<path class="st18" d="M528.2,282.6l337.8,195.1c3.7,2.1,9.3,2.4,12.5,0.5l201.6-116.4c3.2-1.8,2.8-5.1-0.9-7.2L741.4,159.5
										c-3.7-2.1-9.3-2.4-12.5-0.5L527.4,275.4C524.1,277.2,524.6,280.4,528.2,282.6z"/>
									
										<linearGradient id="SVGID_12_" gradientUnits="userSpaceOnUse" x1="211.7599" y1="277.6458" x2="354.3765" y2="277.6458" gradientTransform="matrix(-1 0 0 1 1143.5524 0)">
										<stop  offset="0" style="stop-color:#C0BFF6"/>
										<stop  offset="0.2938" style="stop-color:#C5C4F7"/>
										<stop  offset="0.6399" style="stop-color:#D3D2F9"/>
										<stop  offset="1" style="stop-color:#E9E9FD"/>
									</linearGradient>
									<path class="st19" d="M867.1,317.5l-75.7-43.7c-3-1.7-3-4.5,0-6.2l51.8-29.9c3-1.7,7.8-1.7,10.7,0l75.7,43.7
										c3,1.7,3,4.5,0,6.2l-51.8,29.9C874.8,319.2,870.1,319.2,867.1,317.5z"/>
									<path class="st14" d="M929.6,284l-75.7-43.7c-3-1.7-7.8-1.7-10.7,0l-51.8,29.9c-0.9,0.5-1.5,1.2-1.9,1.8
										c-0.8-1.5-0.2-3.2,1.9-4.4l51.8-29.9c3-1.7,7.8-1.7,10.7,0l75.7,43.7c2,1.2,2.6,2.9,1.9,4.4
										C931.1,285.2,930.5,284.5,929.6,284z"/>
									<g>
										<path class="st13" d="M962.9,385.8L682.1,223.7c-1.9-1.1-4.2-1.1-6,0l-100,57.8c-1.4,0.8-1.4,2.9,0,3.7l280.6,162
											c1.9,1.1,4.2,1.1,6,0l100.1-57.8C964.3,388.7,964.3,386.7,962.9,385.8z"/>
										<path class="st14" d="M962.9,389.6l-1,0.6L682.1,228.6c-1.9-1.1-4.2-1.1-6,0l-99,57.3l-1-0.6c-1.4-0.8-1.4-2.9,0-3.7
											l100-57.8c1.9-1.1,4.2-1.1,6,0l280.7,162.1C964.3,386.7,964.3,388.7,962.9,389.6z"/>
										<g>
											<polygon class="st6" points="602.2,277.6 846.8,418.9 837.1,424.4 592.6,283.2 											"/>
											<polygon class="st6" points="628,262.8 860.5,397 850.8,402.6 618.3,268.4 											"/>
											<polygon class="st6" points="877.8,407 899.6,419.5 889.9,425.1 868.2,412.6 											"/>
											<polygon class="st6" points="858.7,425.7 873.8,434.4 864.1,440 849,431.3 											"/>
											<polygon class="st6" points="644.2,253.4 915.7,410.2 906,415.8 634.5,259 											"/>
											<polygon class="st6" points="660.3,244.1 931.8,400.9 922.2,406.5 650.6,249.7 											"/>
											<polygon class="st6" points="676.5,234.8 948,391.6 938.3,397.2 666.8,240.4 											"/>
										</g>
									</g>
								</g>
							</g>
						</g>
					</g>
				</g>
				<g>
					<g>
						<polygon class="st20" points="874.1,236.4 880.6,240.6 881.3,235.8 874.9,231.6 						"/>
						<polygon class="st20" points="868.7,269 875.2,273.1 879.8,245 873.3,240.8 						"/>
						<polygon class="st20" points="866.2,284.6 872.7,288.7 874.5,277.5 868,273.4 						"/>
						<polygon class="st20" points="863.6,300.7 870.1,304.9 871.9,293.7 865.4,289.5 						"/>
						<polygon class="st20" points="861.8,245.8 868.3,250 870.2,238.8 863.7,234.6 						"/>
						<polygon class="st20" points="858.4,267.2 864.8,271.3 867.5,254.9 861,250.8 						"/>
						<polygon class="st20" points="855.1,286.9 861.6,291 863.9,276.9 857.4,272.8 						"/>
						<polygon class="st20" points="860.9,316.9 867.4,321 869.2,309.8 862.8,305.7 						"/>
						<polygon class="st20" points="864.4,230.2 870.9,234.4 871.7,229.6 865.2,225.4 						"/>
					</g>
					<polygon class="st20" points="853.5,329.4 864.9,336.7 865.6,332 854.3,324.8 					"/>
				</g>
			</g>
			<g>
				<g>
					
						<linearGradient id="SVGID_13_" gradientUnits="userSpaceOnUse" x1="617.4935" y1="592.1861" x2="957.4853" y2="592.1861" gradientTransform="matrix(-1 0 0 1 1143.5524 0)">
						<stop  offset="0" style="stop-color:#42E8E0"/>
						<stop  offset="0.1507" style="stop-color:#43E3E0"/>
						<stop  offset="0.3285" style="stop-color:#45D5DF"/>
						<stop  offset="0.5199" style="stop-color:#49BDDD"/>
						<stop  offset="0.7209" style="stop-color:#4E9CDB"/>
						<stop  offset="0.9274" style="stop-color:#5472D8"/>
						<stop  offset="1" style="stop-color:#5761D7"/>
					</linearGradient>
					<path class="st21" d="M453.1,689.9L453.1,689.9L189.3,537.6c-2.1-1.2-3.3-3.1-3.3-5.1c0-2.3,1.5-4.5,4.1-6l54.8-31.7
						c4.2-2.4,10.3-2.6,14-0.5l263.8,152.3c2.1,1.2,3.3,3.1,3.3,5.1c0,2.3-1.5,4.5-4.1,6l-54.8,31.7c-2.2,1.3-5,1.9-7.7,1.9
						C457.1,691.4,454.9,690.9,453.1,689.9z M247.6,499.4L192.7,531c-1.3,0.7-1.5,1.4-1.5,1.5c0,0.1,0.2,0.3,0.7,0.6l263.8,152.3v0
						c2.1,1.2,6.3,1,8.9-0.5l54.8-31.7c1.3-0.7,1.5-1.4,1.5-1.5c0-0.1-0.2-0.3-0.7-0.6L256.4,498.9c-0.9-0.5-2.2-0.8-3.6-0.8
						C251,498.1,249,498.5,247.6,499.4z"/>
					<g>
						
							<linearGradient id="SVGID_14_" gradientUnits="userSpaceOnUse" x1="520.4532" y1="324.2579" x2="836.7881" y2="324.2579" gradientTransform="matrix(-0.866 -0.5 0 1.1547 977.0963 452.2829)">
							<stop  offset="0" style="stop-color:#5761D7"/>
							<stop  offset="0.1779" style="stop-color:#5C66D9"/>
							<stop  offset="0.3876" style="stop-color:#6A73DF"/>
							<stop  offset="0.6134" style="stop-color:#8289E8"/>
							<stop  offset="0.849" style="stop-color:#A3A7F5"/>
							<stop  offset="1" style="stop-color:#BCBEFF"/>
						</linearGradient>
						<path class="st22" d="M296.6,406.8c6.9,4,13.5,9.6,19.3,16.3c8.1-26,32.8-34.1,62.1-17.2c24.2,14,45.3,41.4,56.4,70.5
							c3.7,0.1,7.8,1.3,12.2,3.9c15.8,9.1,28.6,31.3,28.6,49.5c0,0.4,0,0.8-0.1,1.1c4.5,0.3,9.5,1.9,14.7,4.9
							c20.2,11.7,36.6,40,36.6,63.3s-16.4,32.8-36.6,21.1L296.6,508.7c-24.4-14.1-44.1-48.3-44.1-76.4
							C252.4,404.1,272.2,392.7,296.6,406.8z"/>
						
							<radialGradient id="SVGID_15_" cx="681.5495" cy="484.2474" r="130.6772" fx="558.3154" fy="440.7744" gradientTransform="matrix(-1 0 0 1 1143.5524 0)" gradientUnits="userSpaceOnUse">
							<stop  offset="0" style="stop-color:#2B237C"/>
							<stop  offset="1" style="stop-color:#180D5B"/>
						</radialGradient>
						<path class="st23" d="M296.6,406.8c4,2.3,7.9,5.2,11.6,8.5l21.6-12.5l0,0c11.9-8.3,29.1-8,48.2,3.1
							c24.2,14,45.3,41.4,56.4,70.5c3.7,0.1,7.8,1.3,12.2,3.9c15.8,9.1,28.6,31.3,28.6,49.5c0,0.4,0,0.8-0.1,1.1
							c4.5,0.3,9.5,1.9,14.7,4.9c20.2,11.7,36.6,40,36.6,63.3c0,11.6-4,19.7-10.5,23.6l0,0l-0.2,0.1c0,0,0,0,0,0l-52.9,30.7
							L451.2,598l-154.6-89.3c-24.4-14.1-44.1-48.3-44.1-76.4C252.4,404.1,272.2,392.7,296.6,406.8z"/>
						
							<linearGradient id="SVGID_16_" gradientUnits="userSpaceOnUse" x1="617.1686" y1="525.2941" x2="932.0558" y2="525.2941" gradientTransform="matrix(-1 0 0 1 1143.5524 0)">
							<stop  offset="0" style="stop-color:#5761D7"/>
							<stop  offset="0.1779" style="stop-color:#5C66D9"/>
							<stop  offset="0.3876" style="stop-color:#6A73DF"/>
							<stop  offset="0.6134" style="stop-color:#8289E8"/>
							<stop  offset="0.849" style="stop-color:#A3A7F5"/>
							<stop  offset="1" style="stop-color:#BCBEFF"/>
						</linearGradient>
						<path class="st24" d="M211.5,435l53.6-31.2l0,0c8-4.8,19.1-4.2,31.4,2.9c4,2.3,7.9,5.2,11.6,8.5l21.6-12.5l0,0
							c11.9-8.3,29.1-8,48.2,3.1c24.2,14,45.3,41.4,56.4,70.5c3.7,0.1,7.8,1.3,12.2,3.9c15.8,9.1,28.6,31.3,28.6,49.5
							c0,0.4,0,0.8-0.1,1.1c4.5,0.3,9.5,1.9,14.7,4.9c20.2,11.7,36.6,40,36.6,63.3c0,11.6-4,19.7-10.5,23.6l0,0l-0.2,0.1
							c0,0,0,0,0,0l-52.9,30.7L451.2,598l-154.6-89.3c-19.8-11.4-36.5-36.1-42.1-60L211.5,435z"/>
						
							<linearGradient id="SVGID_17_" gradientUnits="userSpaceOnUse" x1="581.7721" y1="377.5027" x2="898.1069" y2="377.5027" gradientTransform="matrix(-0.866 -0.5 0 1.1547 977.0963 452.2829)">
							<stop  offset="0" style="stop-color:#C0BFF6"/>
							<stop  offset="0.2938" style="stop-color:#C5C4F7"/>
							<stop  offset="0.6399" style="stop-color:#D3D2F9"/>
							<stop  offset="1" style="stop-color:#E9E9FD"/>
						</linearGradient>
						<path class="st25" d="M243.5,437.6c6.9,4,13.5,9.6,19.3,16.3c8.1-26,32.8-34.1,62.1-17.2c24.2,14,45.3,41.4,56.4,70.5
							c3.7,0.1,7.8,1.3,12.2,3.9c15.8,9.1,28.6,31.3,28.6,49.5c0,0.4,0,0.8-0.1,1.1c4.5,0.3,9.5,1.9,14.7,4.9
							c20.2,11.7,36.6,40,36.6,63.3c0,23.3-16.4,32.8-36.6,21.1L243.5,539.5c-24.4-14.1-44.1-48.3-44.1-76.4
							C199.3,434.9,219.1,423.5,243.5,437.6z"/>
						<g>
							<path class="st11" d="M261,455c-5.8-6.7-12.4-12.3-19.3-16.3c-11.9-6.9-22.7-7.7-30.7-3.4c8.1-5.4,19.6-5.1,32.4,2.3
								c6.5,3.8,12.7,9,18.3,15.2C261.5,453.5,261.3,454.2,261,455z"/>
							<path class="st11" d="M471.5,631.1c0-23.3-16.4-51.7-36.6-63.3c-5.2-3-10.2-4.6-14.7-4.9c0-0.4,0.1-0.7,0.1-1.1
								c0-18.2-12.8-40.4-28.6-49.5c-4.4-2.5-8.5-3.7-12.2-3.9c-11.2-29.1-32.2-56.6-56.4-70.5c-17.7-10.2-33.7-11.3-45.4-4.8
								c11.8-7.6,28.6-7,47.2,3.7c24.2,14,45.3,41.4,56.4,70.5c3.7,0.1,7.8,1.3,12.2,3.9c15.8,9.1,28.6,31.3,28.6,49.5
								c0,0.4,0,0.8-0.1,1.1c4.5,0.3,9.5,1.9,14.7,4.9c20.2,11.7,36.6,40,36.6,63.3c0,12-4.3,20.3-11.3,24
								C467.9,649.9,471.5,642,471.5,631.1z"/>
						</g>
					</g>
				</g>
				
					<linearGradient id="SVGID_18_" gradientUnits="userSpaceOnUse" x1="517.8013" y1="710.6096" x2="652.5932" y2="710.6096" gradientTransform="matrix(-1 0 0 1 1143.5524 0)">
					<stop  offset="0" style="stop-color:#5761D7"/>
					<stop  offset="7.257640e-02" style="stop-color:#5472D8"/>
					<stop  offset="0.2791" style="stop-color:#4E9CDB"/>
					<stop  offset="0.4801" style="stop-color:#49BDDD"/>
					<stop  offset="0.6715" style="stop-color:#45D5DF"/>
					<stop  offset="0.8493" style="stop-color:#43E3E0"/>
					<stop  offset="1" style="stop-color:#42E8E0"/>
				</linearGradient>
				<polygon class="st26" points="621,752 625.8,748.8 493.6,669.2 491,673.7 				"/>
			</g>
			
				<linearGradient id="SVGID_19_" gradientUnits="userSpaceOnUse" x1="211.3796" y1="664.6883" x2="383.6031" y2="664.6883" gradientTransform="matrix(-1 0 0 1 1143.5524 0)">
				<stop  offset="0" style="stop-color:#42E8E0"/>
				<stop  offset="0.1507" style="stop-color:#43E3E0"/>
				<stop  offset="0.3285" style="stop-color:#45D5DF"/>
				<stop  offset="0.5199" style="stop-color:#49BDDD"/>
				<stop  offset="0.7209" style="stop-color:#4E9CDB"/>
				<stop  offset="0.9274" style="stop-color:#5472D8"/>
				<stop  offset="1" style="stop-color:#5761D7"/>
			</linearGradient>
			<path class="st27" d="M813,747.5c-0.9,0-1.8-0.5-2.3-1.4c-0.7-1.3-0.2-2.9,1-3.5l112.5-61l-163-94.8c-1.2-0.7-1.7-2.3-0.9-3.6
				c0.7-1.2,2.3-1.7,3.6-0.9l167,97.2c0.8,0.5,1.3,1.4,1.3,2.3c0,0.9-0.5,1.8-1.4,2.3l-116.6,63.3
				C813.8,747.4,813.4,747.5,813,747.5z"/>
			<g>
				<g>
					<g>
						<linearGradient id="SVGID_20_" gradientUnits="userSpaceOnUse" x1="529.184" y1="802.6632" x2="915.6301" y2="802.6632">
							<stop  offset="0" style="stop-color:#42E8E0"/>
							<stop  offset="0.1507" style="stop-color:#43E3E0"/>
							<stop  offset="0.3285" style="stop-color:#45D5DF"/>
							<stop  offset="0.5199" style="stop-color:#49BDDD"/>
							<stop  offset="0.7209" style="stop-color:#4E9CDB"/>
							<stop  offset="0.9274" style="stop-color:#5472D8"/>
							<stop  offset="1" style="stop-color:#5761D7"/>
						</linearGradient>
						<path class="st28" d="M722.4,915.3c-0.5,0-0.9-0.1-1.3-0.3l-190.6-110c-0.8-0.5-1.3-1.3-1.3-2.3c0-0.9,0.5-1.8,1.3-2.3
							l190.6-110.1c0.8-0.5,1.8-0.5,2.6,0l190.6,110c0.8,0.5,1.3,1.3,1.3,2.3c0,0.9-0.5,1.8-1.3,2.3L723.7,915
							C723.3,915.2,722.9,915.3,722.4,915.3z M537,802.7l185.4,107l185.4-107l-185.4-107L537,802.7z"/>
						
							<linearGradient id="SVGID_21_" gradientUnits="userSpaceOnUse" x1="385.605" y1="859.5387" x2="456.6849" y2="745.787" gradientTransform="matrix(-1 0 0 1 1143.5524 0)">
							<stop  offset="0" style="stop-color:#42E8E0"/>
							<stop  offset="0.1507" style="stop-color:#43E3E0"/>
							<stop  offset="0.3285" style="stop-color:#45D5DF"/>
							<stop  offset="0.5199" style="stop-color:#49BDDD"/>
							<stop  offset="0.7209" style="stop-color:#4E9CDB"/>
							<stop  offset="0.9274" style="stop-color:#5472D8"/>
							<stop  offset="1" style="stop-color:#5761D7"/>
						</linearGradient>
						<polygon class="st29" points="722.4,875.7 849,802.7 722.4,729.6 595.8,802.7 						"/>
					</g>
					<g>
						<path class="st30" d="M690.1,761.6c0,0-2.2,2.2-4.4,4.7c-2.3,2.5-8.5,6-11.1,7.6c-2.6,1.5-14.7,10.2-17.4,19
							c-2.7,8.8,5.8,10.2,14.5,8.9c8.7-1.3,17-9.1,19.5-12c2.4-2.8,10.8-9.2,21.6-14.4c10.8-5.2,4.5-12.8,4.5-12.8L690.1,761.6z"/>
						<path class="st30" d="M768.5,789.8c0,0,1.7,4,2,9.2c0.4,5.1,0.8,16.3,1,19.5c0.2,3.3,0.1,11.2-5.8,18.7
							c-5.9,7.5-8.9,10.4-16.5,7.2c-7.5-3.2-7-15.9-5.5-22.5s3.1-21.2,3-22.7c-0.1-1.5,0.5-2.5,0.5-2.5L768.5,789.8z"/>
						<path class="st6" d="M667.6,610.4c0,0,0.1,58.6,13,90c0,0,9.1,27.6,9.6,60.2c0,0-2.4,5.5,0.7,10.2c3.1,4.6,23,9.3,26.7-5.6
							c3.7-14.9,3.1-42.9-0.2-54.7c-3.3-11.8,2.4-43.8,2.4-43.8s5.4,3.6,12,26.9c6.6,23.3,11.7,32.2,14,38.7
							c2.3,6.4,3.6,45.7,1.6,64.8c0,0,16.2,2.7,21-4.9c4.9-7.6,7.4-47.7,6.6-60.5c-0.9-12.8-5.2-53.9-4.2-66.5
							c1-12.7,3.9-22.9,1.4-35.6c-2.6-12.7-87.4-43-87.4-43L667.6,610.4z"/>
						<path class="st30" d="M770.7,665c1-12.7,3.9-22.9,1.4-35.6c-1-4.8-13.6-12-28.9-19.2c-26.1-3-59.3-6.6-61.6-6.3
							c-2.1,0.3-7.5,2.2-12.1,3.9l-1.9,2.7c0,0,0,3.6,0.2,9.4c6.1,2,17.9,0.4,17.9,0.4c1.6,4.1,11.4,19,23.9,25.6
							c12.5,6.6,49.7,5.4,51.8,7.8c2.1,2.4,1.7,34.5,1.4,38.6c-0.3,4.1,2.8,29.8,5.7,52.6c2.8,22.4-3,49.4-3.2,50.2
							c1.2-0.7,2.3-1.7,3.1-2.9c4.9-7.6,7.4-47.7,6.6-60.5C774,718.7,769.6,677.7,770.7,665z"/>
						<path class="st8" d="M701,419.7c0,0-19.1,3.9-25.5,5.2c-1.1,0.2-1.9,0.9-2.4,1.9c-2,4.6-6.9,19-4,40.3
							c3.6,26.1,1.8,43.6,1.8,43.6l-9.9,45.5c0,0-12.1,43.2-11.2,44.5c0.9,1.2,24.9,20.4,32.6,18c7.7-2.4,5.3-6.8,5.3-6.8
							s5.4,31.7,32.8,32.1c27.4,0.4,49.8,1,54.7-9.9c4.9-11,0.2-57.7-4.2-76.3c-4.4-18.6-15-55.6-15-55.6l41.3-43.4l-33.7-27.1
							c0,0-7.8-15.4-11.1-17.5c-3.3-2-5.1-0.4-5.1-0.4L701,419.7z"/>
						<g>
							
								<linearGradient id="SVGID_22_" gradientUnits="userSpaceOnUse" x1="1063.7952" y1="631.1495" x2="1100.3152" y2="631.1495" gradientTransform="matrix(0.9966 8.260000e-02 -8.260000e-02 0.9966 -358.0338 -108.0863)">
								<stop  offset="0" style="stop-color:#5761D7"/>
								<stop  offset="7.257640e-02" style="stop-color:#5472D8"/>
								<stop  offset="0.2791" style="stop-color:#4E9CDB"/>
								<stop  offset="0.4801" style="stop-color:#49BDDD"/>
								<stop  offset="0.6715" style="stop-color:#45D5DF"/>
								<stop  offset="0.8493" style="stop-color:#43E3E0"/>
								<stop  offset="1" style="stop-color:#42E8E0"/>
							</linearGradient>
							<path class="st31" d="M683.2,608.6c0,1.6-1,3.9-6,5.5c-5.4,1.7-18.2-6.6-26.6-12.7c4.2,3.7,24.8,19.5,31.9,17.3
								c1.5-0.5,2.7-1,3.5-1.6C684.5,613.4,683.6,610.4,683.2,608.6z"/>
							
								<linearGradient id="SVGID_23_" gradientUnits="userSpaceOnUse" x1="1115.4235" y1="642.9969" x2="1191.8303" y2="642.9969" gradientTransform="matrix(0.9966 8.260000e-02 -8.260000e-02 0.9966 -358.0338 -108.0863)">
								<stop  offset="0" style="stop-color:#5761D7"/>
								<stop  offset="7.257640e-02" style="stop-color:#5472D8"/>
								<stop  offset="0.2791" style="stop-color:#4E9CDB"/>
								<stop  offset="0.4801" style="stop-color:#49BDDD"/>
								<stop  offset="0.6715" style="stop-color:#45D5DF"/>
								<stop  offset="0.8493" style="stop-color:#43E3E0"/>
								<stop  offset="1" style="stop-color:#42E8E0"/>
							</linearGradient>
							<path class="st32" d="M775.3,630.2c-5.2,11.6-28.8,10.9-57.8,10.5c-7.4-0.1-13.2-2.3-17.9-5.6c4.9,4.9,11.7,8.7,21,8.8
								c27.4,0.4,49.8,1,54.7-9.9c1.6-3.6,2.2-11.1,2.1-20.1C777.3,621.2,776.7,627.1,775.3,630.2z"/>
						</g>
						<path class="st33" d="M751.9,413.7c0,0,6.8,8.7-3.6,19.9c-6.4,6.9-17.4,21.8-26.9,37.4c-5.9,9.7-11.3,14.8-14.5,23.2
							c0,0-0.2-10.1-0.2-25.6c0-14.7,0.2-29.9,0.9-33.7C709.2,426.9,744.3,409.7,751.9,413.7z"/>
						<path class="st34" d="M725.1,438.5c0,0-3.6,2.1-4.9,1.9c-1.2-0.2-5.1-4.2-5.1-4.2s-9.9-0.4-10.9-4.7c-1-4.3-1.6-8.6-2.5-10.8
							c-1-2.2-5-13-4.9-17.3c0.1-4.3,0.4-12-1.3-16.1c-1.8-4.1-3.3-45,36.1-42.9s26.1,42.8,26.1,42.8s2.9,1.3,1,6.5
							c-1.9,5.2-2.3,5.8-3.2,8.4c-1,2.6-1.4,4.3-4,6.3l-0.8,4.8c0,0,1.7,7.5-3.4,14.5C742.2,434.8,725.1,438.5,725.1,438.5z"/>
						<path class="st6" d="M674.4,425.3c0,0-4.2,0.5-18.7,34.5c-8.1,19-20.3,38.5-23.2,52.7c-2.8,14.2-1.8,29.4,1,30.6
							c2.7,1.1,51.3,20.7,66.5,26.8c0.8,0.3,1.8-0.2,2-1.1l4.8-23.6l-30.1-12.5c0,0-5.6-7.2-11-10c0,0,6.4-11.1,6.1-14.2
							c-0.3-3.1,1.4-34.8-1.8-47.8C666.5,447.7,674.4,425.3,674.4,425.3z"/>
						<path class="st34" d="M689.9,516.5c0,0-4.1-2.9-5.1-3.3c-1-0.4-6.6-2.5-7.6-3c-0.8-0.4-4.1-0.2-5.7-0.1
							c-0.6,0-1.1,0.4-1.4,0.9c-1.4,2.4-5.1,9.3-4.8,11.9c0,0,10,6.7,11,9.5l1.6,0.4C677.9,532.8,685,518.4,689.9,516.5z"/>
						<path class="st6" d="M771.2,557.7c-1.1-4.5-2.5-10-4-15.8l-62.3,24.9c0,0,17.9,23.1,50.2,22.5c8.9-0.2,15.4-3.2,20.2-5.8
							C774.1,573.2,772.6,563.9,771.2,557.7z"/>
						<path class="st6" d="M797.5,458.6c0,0-16.3,1.8-29.9,22.3c-13.6,20.5-23.8,44.3-23.8,44.3l-0.5,2.7c-1.4,7-9,10.9-15.5,7.8
							c-13.7-6.5-34-16.4-37.8-19.3c0,0-12.4,6.5-16.2,22.4c-3,12.7-2.3,12.8-2.3,12.8s54.1,26.9,75.2,27.2
							c21.1,0.3,49.7-68.5,53-82.8C802.9,481.7,806.7,462.9,797.5,458.6z"/>
						<path class="st35" d="M797.5,458.6c0,0-16.3,1.8-29.9,22.3c-13.6,20.5-23.8,44.3-23.8,44.3l-0.5,2.7c-1.4,7-9,10.9-15.5,7.8
							c-13.7-6.5-34-16.4-37.8-19.3c0,0-12.4,6.5-16.2,22.4c-3,12.7-2.3,12.8-2.3,12.8s54.1,26.9,75.2,27.2
							c21.1,0.3,49.7-68.5,53-82.8C802.9,481.7,806.7,462.9,797.5,458.6z"/>
						<path class="st8" d="M735.5,539.2c0,0,6.7,6.6,9.8,3.2c3.1-3.5,2.2-3.9,2.2-3.9s6.2,0.1,7.1-3.8c0.9-3.9,3.9-1.7,4.1-6.1
							c0.3-4.3-4.9-3.6-4.9-3.6L735.5,539.2z"/>
						<path class="st34" d="M727.2,535.5c0,0,1.9-1.7,4.4-3.7c2.5-2,6.7-10.5,7.4-11.2c0.7-0.7,9.1-6.9,13.1-6.9c4,0,0.9,4.4,0,5
							c-0.9,0.6-4.9,2.4-4.9,2.4s-4.1,3.3-4.5,3.7c-0.5,0.5,11.1-0.5,12.9,0.7c1.8,1.2,1.3,4.1,0,4.9c-1.3,0.8-2.3,0.7-2.3,0.7
							s1.2,3.5-2.3,5c-3.5,1.5-4.3,0.6-4.3,0.6s-0.4,6-6.1,4.7L727.2,535.5z"/>
						<path class="st36" d="M695,366.4c0,0-5.6,16.3,8.1,11.9c13.7-4.3,26.1-11.8,30.3-8.7c3.2,2.3,2.9,9.3,2.5,12.4
							c-0.1,1.1,0.1,2.2,0.7,3.1l3.9,5.9c0.4,0.7,0.7,1.4,0.7,2.2l0.2,4.1c0,1,0.8,1.9,1.9,1.9l0.9,0.1c1,0.1,2-0.6,2.2-1.6l1.2-5.9
							c0,0,3.4-7.9,10.1-4.6c0,0,4.7-5.9,3.5-18.9c-1.2-13-6.6-26.6-32-29.4C703.8,336.1,695,366.4,695,366.4z"/>
						<path class="st37" d="M731.7,453.1l-3.7-3c0,0-3.6,2.8-5,5.9c-1.4,3.1-0.3,13-0.3,13l-1.2,2l-1.4-2.6l-0.9-11.7
							c0,0,1.5-8.6,1.6-8.8c0.1-0.2,7.3,0.9,7.3,0.9S730.5,450.7,731.7,453.1z"/>
						<path class="st37" d="M713.7,441.1c0,0-4.1,0.2-5.9,1.6c0,0,4.3,0.3,4.9,0.4C713.4,443.2,713.7,441.1,713.7,441.1z"/>
						<path class="st6" d="M721.4,442.2l6.7,6.5c0,0-6.1,2.6-7.9,7.9c0,0-7.5,1.2-8.1-1.5s0.3-9.5-0.6-12.5
							C710.8,439.7,721.4,442.2,721.4,442.2z"/>
						<path class="st6" d="M712.4,455c0,0-1.4,5.6-2.8,7.8c-1.4,2.3-2.9,4.8-2.9,4.8l-0.6,32.7c0,0,12.7-24.5,15.4-29.5
							c0,0-0.1-12-1.2-14.2C719.2,454.4,712.4,455,712.4,455z"/>
						<path class="st38" d="M746,407.5c-8.5,22.6-30.9,28.8-30.9,28.8s3.9,4,5.1,4.2c1.2,0.2,4.9-1.9,4.9-1.9s17.1-3.7,22.2-10.8
							c5.1-7.1,3.4-14.6,3.4-14.6l0.8-4.8C747.8,409.4,746,407.5,746,407.5z"/>
						<path class="st6" d="M763.4,434.6c0,0-3.4,10.7-3.8,11.1c-0.4,0.4-7.8-0.6-7.8-0.6l3.4,6.9c0,0-38.4,39.2-46.7,60.6
							c0,0,18.4-26.9,50.4-58.9l-4.2-6.8l7.6,1.7L763.4,434.6z"/>
						<path class="st6" d="M702.1,423.6l-2,2.2l2.3,2.2l-7.1,6.1c0,0-3.2,43.9,4.5,73.2c0,0-10.8-27-7-74.4l7.6-4.9l-2.4-2.5
							L702.1,423.6z"/>
						<path class="st30" d="M719.7,666.6c0,0,0.1,0.1,0.3,0.2l-9.4-10.6c4.3,6.4-1.6,35.2-2.3,41.8c-0.7,6.6,4.7,20.4,6.4,36.5
							c1.7,16-3.2,38.8-3.2,38.8c2.8-1.5,5.1-4.2,6.1-8.3c3.7-14.9,3.1-42.9-0.2-54.7C714,698.6,719.7,666.6,719.7,666.6z"/>
						
							<linearGradient id="SVGID_24_" gradientUnits="userSpaceOnUse" x1="1080.3179" y1="546.1221" x2="1204.5897" y2="546.1221" gradientTransform="matrix(0.9966 8.260000e-02 -8.260000e-02 0.9966 -358.0338 -108.0863)">
							<stop  offset="0" style="stop-color:#5761D7"/>
							<stop  offset="7.257640e-02" style="stop-color:#5472D8"/>
							<stop  offset="0.2791" style="stop-color:#4E9CDB"/>
							<stop  offset="0.4801" style="stop-color:#49BDDD"/>
							<stop  offset="0.6715" style="stop-color:#45D5DF"/>
							<stop  offset="0.8493" style="stop-color:#43E3E0"/>
							<stop  offset="1" style="stop-color:#42E8E0"/>
						</linearGradient>
						<path class="st39" d="M746.7,578.8c21.1,0.3,49.7-68.5,53-82.8c0.6-2.4,1.1-4.9,1.6-7.4c-0.1,0.2-5.9,15.1-11.5,28.2
							c-5.6,13.3-34.9,53.1-49.4,55.4c-13.1,2.1-59.3-21-68.3-25.5c-0.9,4.9-0.6,4.9-0.6,4.9S725.5,578.6,746.7,578.8z"/>
						<path class="st40" d="M744.2,399.4c1,0.1,2-0.6,2.2-1.6l1.2-5.9c0,0,3.4-7.9,10.1-4.6c0,0,4.4-5.6,3.5-17.9
							c-7.8,11.1-24.5,15.8-24.5,15.8l3.9,5.9c0.4,0.7,0.7,1.4,0.7,2.2l0.2,4.1c0,1,0.8,1.9,1.9,1.9L744.2,399.4z"/>
					</g>
				</g>
			</g>
		</g>
	</g>
	<polygon class="st41" points="514.6,751 488.6,766 462.6,751 488.6,736 	"/>
	<polygon class="st42" points="601.2,634.3 575.2,649.3 549.2,634.3 575.2,619.3 	"/>
	<polygon class="st42" points="485.7,236 459.7,251 433.7,236 459.7,221 	"/>
	<polygon class="st41" points="630.1,684.3 604.1,699.4 578.1,684.3 604.1,669.3 	"/>
	<polygon class="st41" points="947.6,601 921.6,616 895.6,601 921.6,586 	"/>
	<polygon class="st41" points="335.6,366.4 309.6,381.4 283.7,366.4 309.6,351.4 	"/>
	<polygon class="st41" points="965,366 939,381 913,366 939,351 	"/>
	<polygon class="st42" points="165.3,392.7 139.3,407.7 113.3,392.7 139.3,377.7 	"/>
	<g>
		<linearGradient id="SVGID_25_" gradientUnits="userSpaceOnUse" x1="144.3873" y1="267.3394" x2="372.8844" y2="267.3394">
			<stop  offset="0" style="stop-color:#42E8E0"/>
			<stop  offset="0.1507" style="stop-color:#43E3E0"/>
			<stop  offset="0.3285" style="stop-color:#45D5DF"/>
			<stop  offset="0.5199" style="stop-color:#49BDDD"/>
			<stop  offset="0.7209" style="stop-color:#4E9CDB"/>
			<stop  offset="0.9274" style="stop-color:#5472D8"/>
			<stop  offset="1" style="stop-color:#5761D7"/>
		</linearGradient>
		<path class="st43" d="M258.6,335.3c-0.8,0-1.7-0.2-2.4-0.6l-109.5-63.2c-1.5-0.9-2.4-2.4-2.4-4.1c0-1.7,0.9-3.3,2.4-4.1L256.3,200
			c1.5-0.8,3.3-0.8,4.8,0l109.5,63.2c1.5,0.8,2.4,2.4,2.4,4.1c0,1.7-0.9,3.3-2.4,4.1L261,334.7C260.3,335.1,259.5,335.3,258.6,335.3
			z M258.9,330.2L258.9,330.2L258.9,330.2z M150.1,267.3L258.6,330l108.6-62.7l-108.6-62.7L150.1,267.3z"/>
		<linearGradient id="SVGID_26_" gradientUnits="userSpaceOnUse" x1="159.9923" y1="262.9496" x2="300.5728" y2="262.9496">
			<stop  offset="0.2473" style="stop-color:#5761D7"/>
			<stop  offset="0.4363" style="stop-color:#6C74DF"/>
			<stop  offset="0.8245" style="stop-color:#A2A6F5"/>
			<stop  offset="1" style="stop-color:#BCBEFF"/>
		</linearGradient>
		<polygon class="st44" points="357.3,244.4 357.3,224.5 258.6,278.9 160,224.5 160,244.4 258.6,301.4 		"/>
		<linearGradient id="SVGID_27_" gradientUnits="userSpaceOnUse" x1="159.9923" y1="224.5207" x2="357.2787" y2="224.5207">
			<stop  offset="0" style="stop-color:#C0BFF6"/>
			<stop  offset="0.2938" style="stop-color:#C5C4F7"/>
			<stop  offset="0.6399" style="stop-color:#D3D2F9"/>
			<stop  offset="1" style="stop-color:#E9E9FD"/>
		</linearGradient>
		<polygon class="st45" points="258.6,281.5 160,224.5 258.6,167.6 357.3,224.5 		"/>
		<polygon class="st46" points="258.6,279.8 161.4,223.7 160,224.5 258.6,281.5 357.3,224.5 355.9,223.7 		"/>
		<polygon class="st47" points="258.6,259.7 197.7,224.5 258.6,189.3 319.6,224.5 		"/>
		<g>
			<linearGradient id="SVGID_28_" gradientUnits="userSpaceOnUse" x1="197.6528" y1="224.5213" x2="319.6181" y2="224.5213">
				<stop  offset="0" style="stop-color:#42E8E0"/>
				<stop  offset="0.1507" style="stop-color:#43E3E0"/>
				<stop  offset="0.3285" style="stop-color:#45D5DF"/>
				<stop  offset="0.5199" style="stop-color:#49BDDD"/>
				<stop  offset="0.7209" style="stop-color:#4E9CDB"/>
				<stop  offset="0.9274" style="stop-color:#5472D8"/>
				<stop  offset="1" style="stop-color:#5761D7"/>
			</linearGradient>
			<polygon class="st48" points="258.6,259.7 197.7,224.5 258.6,189.3 319.6,224.5 			"/>
			<g>
				<linearGradient id="SVGID_29_" gradientUnits="userSpaceOnUse" x1="258.6345" y1="182.2892" x2="319.6181" y2="182.2892">
					<stop  offset="0" style="stop-color:#42E8E0"/>
					<stop  offset="0.1507" style="stop-color:#43E3E0"/>
					<stop  offset="0.3285" style="stop-color:#45D5DF"/>
					<stop  offset="0.5199" style="stop-color:#49BDDD"/>
					<stop  offset="0.7209" style="stop-color:#4E9CDB"/>
					<stop  offset="0.9274" style="stop-color:#5472D8"/>
					<stop  offset="1" style="stop-color:#5761D7"/>
				</linearGradient>
				<polygon class="st49" points="258.6,140.1 319.6,175.3 319.6,224.5 258.6,189.3 				"/>
				<linearGradient id="SVGID_30_" gradientUnits="userSpaceOnUse" x1="197.6528" y1="182.2887" x2="258.6364" y2="182.2887">
					<stop  offset="0" style="stop-color:#42E8E0"/>
					<stop  offset="0.1507" style="stop-color:#43E3E0"/>
					<stop  offset="0.3285" style="stop-color:#45D5DF"/>
					<stop  offset="0.5199" style="stop-color:#49BDDD"/>
					<stop  offset="0.7209" style="stop-color:#4E9CDB"/>
					<stop  offset="0.9274" style="stop-color:#5472D8"/>
					<stop  offset="1" style="stop-color:#5761D7"/>
				</linearGradient>
				<polygon class="st50" points="258.6,189.3 197.7,224.5 197.7,175.3 258.6,140.1 				"/>
				<linearGradient id="SVGID_31_" gradientUnits="userSpaceOnUse" x1="197.6528" y1="175.2654" x2="319.6181" y2="175.2654">
					<stop  offset="0" style="stop-color:#42E8E0"/>
					<stop  offset="0.1507" style="stop-color:#43E3E0"/>
					<stop  offset="0.3285" style="stop-color:#45D5DF"/>
					<stop  offset="0.5199" style="stop-color:#49BDDD"/>
					<stop  offset="0.7209" style="stop-color:#4E9CDB"/>
					<stop  offset="0.9274" style="stop-color:#5472D8"/>
					<stop  offset="1" style="stop-color:#5761D7"/>
				</linearGradient>
				<polygon class="st51" points="258.6,210.5 197.7,175.3 258.6,140.1 319.6,175.3 				"/>
				<linearGradient id="SVGID_32_" gradientUnits="userSpaceOnUse" x1="258.6364" y1="217.4975" x2="319.6181" y2="217.4975">
					<stop  offset="0" style="stop-color:#42E8E0"/>
					<stop  offset="0.1507" style="stop-color:#43E3E0"/>
					<stop  offset="0.3285" style="stop-color:#45D5DF"/>
					<stop  offset="0.5199" style="stop-color:#49BDDD"/>
					<stop  offset="0.7209" style="stop-color:#4E9CDB"/>
					<stop  offset="0.9274" style="stop-color:#5472D8"/>
					<stop  offset="1" style="stop-color:#5761D7"/>
				</linearGradient>
				<polygon class="st52" points="258.6,210.5 258.6,259.7 319.6,224.5 319.6,175.3 				"/>
			</g>
			<linearGradient id="SVGID_33_" gradientUnits="userSpaceOnUse" x1="197.6528" y1="217.497" x2="258.6364" y2="217.497">
				<stop  offset="0" style="stop-color:#42E8E0"/>
				<stop  offset="0.1507" style="stop-color:#43E3E0"/>
				<stop  offset="0.3285" style="stop-color:#45D5DF"/>
				<stop  offset="0.5199" style="stop-color:#49BDDD"/>
				<stop  offset="0.7209" style="stop-color:#4E9CDB"/>
				<stop  offset="0.9274" style="stop-color:#5472D8"/>
				<stop  offset="1" style="stop-color:#5761D7"/>
			</linearGradient>
			<polygon class="st53" points="197.7,175.3 197.7,224.5 258.6,259.7 258.6,210.5 			"/>
		</g>
	</g>
</g>
</svg>
