<?xml version="1.0" encoding="utf-8"?>
<!-- Generator: Adobe Illustrator 24.0.1, SVG Export Plug-In . SVG Version: 6.00 Build 0)  -->
<svg version="1.1" id="Layer_1" xmlns="http://www.w3.org/2000/svg" xmlns:xlink="http://www.w3.org/1999/xlink" x="0px" y="0px"
	 viewBox="0 0 300 300" style="enable-background:new 0 0 300 300;" xml:space="preserve">
<style type="text/css">
	.st0{fill:#FFFFFF;}
	.st1{fill:#CCCCCC;}
	.st2{fill:none;stroke:#CCCCCC;stroke-width:0.8993;stroke-linecap:round;stroke-linejoin:round;}
	.st3{fill:none;stroke:#CCCCCC;stroke-width:2.1732;stroke-linecap:round;stroke-linejoin:round;}
	.st4{fill:#6C78AF;}
	.st5{fill:#F89C0E;}
	.st6{fill:#A4E7FF;}
	.st7{fill:#044DB5;}
</style>
<g id="Layer_1_1_">
	<rect class="st0" width="300" height="300"/>
</g>
<g>
	<rect x="7.3" y="58" class="st0" width="244.9" height="192"/>
	<g>
		<rect x="75.4" y="76.3" class="st6" width="21.6" height="21.6"/>
		<rect x="118.7" y="76.3" class="st6" width="21.6" height="21.6"/>
		<rect x="162" y="76.3" class="st6" width="21.6" height="21.6"/>
		<rect x="205.3" y="76.3" class="st6" width="21.6" height="21.6"/>
		<rect x="32.6" y="116.4" class="st6" width="21.6" height="21.6"/>
		<rect x="75.4" y="116.4" class="st6" width="21.6" height="21.6"/>
		<rect x="118.7" y="116.4" class="st6" width="21.6" height="21.6"/>
		<rect x="32.6" y="156.9" class="st6" width="21.6" height="21.6"/>
		<rect x="75.4" y="156.9" class="st6" width="21.6" height="21.6"/>
		<rect x="32.6" y="196.9" class="st6" width="21.6" height="21.6"/>
		<rect x="75.4" y="196.9" class="st6" width="21.6" height="21.6"/>
	</g>
	<rect x="7.3" y="20.2" class="st6" width="244.9" height="37.7"/>
	<path class="st0" d="M199.2,290.4c-51.6,0-93.4-41.9-93.4-93.4s41.9-93.4,93.4-93.4c51.6,0.5,93.4,42.4,93.4,93.4
		C292.7,248.5,250.8,290.4,199.2,290.4z"/>
	<g>
		<circle class="st6" cx="199.2" cy="196.9" r="32.7"/>
		<circle class="st6" cx="199.2" cy="196.9" r="32.7"/>
		<circle class="st6" cx="199.2" cy="196.9" r="32.7"/>
	</g>
	<g>
		<path class="st7" d="M256.8,117.8V15.6h-35.9V5h-9.2v10.6h-34.1V5h-9.2v10.6h-34.1V5h-9.2v10.6H91.1V5h-9.2v10.6H47.8V5h-9.2v10.6
			H2.7v238.9h117.4c18,24.4,46.5,40.5,79.2,40.5c54.3,0,98.1-43.7,98.1-98.1C297.3,164.7,281.2,135.8,256.8,117.8z M11.9,24.8h26.7
			v10.1h9.2V24.8h34.1v10.1h9.2V24.8h34.1v10.1h9.2V24.8h34.1v10.1h9.2V24.8h34.1v10.1h9.2V24.8h26.7v28.5H11.9V24.8z M11.9,245.3
			V62.5h235.7v49.7c-14.2-8.3-30.9-12.9-48.3-12.9c-53.9,0-97.6,43.7-97.6,97.6c0,17.5,4.6,34.1,12.9,47.9H11.9V245.3z M110.9,201.6
			h9.7v-9.2h-9.7c0.9-21.2,9.7-40.1,22.6-54.8l6.9,6.9l6.5-6.5l-6.5-6.5c14.7-13.3,33.6-21.6,54.8-22.6v10.1h9.2v-10.6
			c21.2,0.9,40.1,9.7,54.8,22.6l-6.9,6.9l6.5,6.5l6.9-6.9c13.4,14.8,21.7,33.7,22.6,54.4h-9.7v9.2h9.7c-0.9,21.2-9.2,40.1-22.6,54.8
			l-6.9-6.9l-6.9,6.9l6.9,6.9c-14.7,13.3-33.6,21.6-54.8,22.6v-9.7h-9.2v10.1c-17-0.5-38.2-7.4-55.3-22.1l7.4-7.4l-6-6.9l-7.8,7.8
			C121,243.9,112.3,225.5,110.9,201.6z"/>
		<path class="st7" d="M217.2,192.4c-1.8-6.5-6.9-11.5-13.3-13.3v-36.8h-9.2V179c-7.8,1.8-13.8,9.2-13.8,18
			c0,10.1,8.3,18.4,18.4,18.4c8.8,0,16.1-6,18-13.8h47.9v-9.2L217.2,192.4L217.2,192.4z"/>
		<rect x="174.4" y="248.1" class="st7" width="9.2" height="9.2"/>
		<rect x="194.7" y="248.1" class="st7" width="9.2" height="9.2"/>
		<rect x="214.9" y="248.1" class="st7" width="9.2" height="9.2"/>
	</g>
	<circle class="st6" cx="199.2" cy="196.9" r="6.5"/>
</g>
</svg>
