<?xml version="1.0" encoding="utf-8"?>
<!-- Generator: Adobe Illustrator 24.0.1, SVG Export Plug-In . SVG Version: 6.00 Build 0)  -->
<svg version="1.1" id="Layer_1" xmlns="http://www.w3.org/2000/svg" xmlns:xlink="http://www.w3.org/1999/xlink" x="0px" y="0px"
	 viewBox="0 0 300 300" style="enable-background:new 0 0 300 300;" xml:space="preserve">
<style type="text/css">
	.st0{fill:#FFFFFF;}
	.st1{fill:#A4E7FF;}
	.st2{fill:#044DB5;}
</style>
<g id="Layer_1_1_">
	<polyline class="st0" points="0,0 300,0 300,300 0,300 	"/>
</g>
<g>
	<g>
		<path class="st0" d="M238.7,105.4c0,22.1-40.6,40.1-90.8,40.1s-90.8-18-90.8-40.1s40.6-40.1,90.8-40.1S238.7,83.3,238.7,105.4
			L238.7,105.4z"/>
		<path class="st1" d="M147.9,127.1c-46.8,0-71.5-16.5-71.5-22.2s24.6-22.2,71.5-22.2c46.8,0,71.5,16.5,71.5,22.2
			C219.4,110.7,194.7,127.1,147.9,127.1L147.9,127.1z"/>
		<path class="st0" d="M147.9,193.3c-50.2,0-90.8-17.9-90.8-40.1V201c0,22.2,40.5,40.1,90.8,40.1s90.8-17.9,90.8-40.1v-47.8
			C238.7,175.4,198.1,193.3,147.9,193.3L147.9,193.3z"/>
		<path class="st0" d="M147.9,242.5c-50.2,0-90.8-17.9-90.8-40.1v47.8c0,22.2,40.5,40.1,90.8,40.1s90.8-17.9,90.8-40.1v-47.8
			C238.7,224.3,198.1,242.5,147.9,242.5L147.9,242.5z"/>
		<path class="st0" d="M147.9,145.5c-50.2,0-90.8-17.9-90.8-40.1v47.8c0,22.2,40.5,40.1,90.8,40.1s90.8-17.9,90.8-40.1v-47.8
			C238.7,127.6,198.1,145.5,147.9,145.5L147.9,145.5z"/>
		<path class="st2" d="M233.8,173.5v29.9c-1.5,16.9-35.3,34.3-85.5,34.3c-49.3,0-83.1-16.9-85.5-33.4c0-1-0.5-1.9-0.5-2.5v-28
			c15.5,15,47.4,25.1,85.9,25.1c33.8,0,62.8-7.7,79.6-20.3c1.5-1,2.5-1.9,3.8-2.9l1-1C232.9,174,233.4,173.5,233.8,173.5
			L233.8,173.5z M233.8,153.2c0,16.9-34.3,35.3-85.9,35.3c-51.2,0-85.9-18.4-85.9-35.3v-28c15.4,15,47.8,25.1,85.9,25.1
			s70.6-10.2,85.9-25.1V153.2z M233.4,106.3c-1.5,16.9-35.3,34.3-85.5,34.3c-51.2,0-85.9-18.4-85.9-35.3s34.3-35.3,85.9-35.3
			c51.2,0,85.9,18.4,85.9,35.3C233.8,105.4,233.4,105.9,233.4,106.3L233.4,106.3z M233.8,250.2c0,16.9-34.3,35.3-85.9,35.3
			c-51.2,0-85.9-18.4-85.9-35.3v-28c15.5,15,47.8,25.1,85.9,25.1s70.6-10.2,85.9-25.1V250.2z M52.4,192.9l0.5,57.5
			c0,25.1,42,44.9,95.7,44.9c53.6,0,95.6-19.8,95.6-44.9l-0.3-57.5l-0.4-9.7l0,0v-77.8c0-25.1-42-44.9-95.6-44.9
			s-95.7,19.8-95.7,44.9v77.7L52.4,192.9z"/>
		<rect x="114.5" y="100.6" class="st2" width="9.6" height="9.6"/>
		<rect x="143.1" y="100.6" class="st2" width="9.6" height="9.6"/>
		<rect x="171.5" y="100.6" class="st2" width="9.6" height="9.6"/>
		<rect x="119.4" y="163.3" class="st2" width="9.6" height="9.6"/>
		<rect x="166.7" y="163.3" class="st2" width="9.6" height="9.6"/>
		<rect x="119.4" y="211.6" class="st2" width="9.6" height="9.6"/>
		<rect x="166.7" y="211.6" class="st2" width="9.6" height="9.6"/>
		<rect x="119.4" y="260.4" class="st2" width="9.6" height="9.6"/>
		<rect x="166.7" y="260.4" class="st2" width="9.6" height="9.6"/>
	</g>
	<g>
		<path class="st2" d="M58.7,52.8L47.3,15.6H47c0.4,7.6,0.6,12.6,0.6,15.1v22h-9V5.4h13.7l11.2,36.2h0.2L75.6,5.4h13.7v47.4H80V30.4
			c0-1.1,0-2.3,0-3.7c0-1.4,0.2-5.1,0.4-11h-0.3L67.9,52.8H58.7z"/>
		<path class="st2" d="M116,24.9l9.9-19.5h10.8L121,34.3v18.4h-10V34.7L95.3,5.4h10.9L116,24.9z"/>
		<path class="st2" d="M170.6,39.6c0,4.3-1.5,7.6-4.6,10.1s-7.4,3.7-12.9,3.7c-5.1,0-9.5-1-13.4-2.9v-9.3c3.2,1.4,5.9,2.4,8.1,3
			c2.2,0.6,4.2,0.9,6.1,0.9c2.2,0,3.9-0.4,5.1-1.3c1.2-0.8,1.8-2.1,1.8-3.8c0-0.9-0.3-1.8-0.8-2.5c-0.5-0.7-1.3-1.4-2.3-2.1
			c-1-0.7-3.1-1.7-6.1-3.2c-2.9-1.4-5.1-2.7-6.5-3.9c-1.4-1.3-2.6-2.7-3.5-4.4c-0.9-1.7-1.3-3.6-1.3-5.8c0-4.2,1.4-7.5,4.3-9.9
			c2.8-2.4,6.8-3.6,11.8-3.6c2.5,0,4.8,0.3,7.1,0.9c2.2,0.6,4.6,1.4,7,2.5l-3.2,7.8c-2.5-1-4.6-1.8-6.3-2.2s-3.3-0.6-4.9-0.6
			c-1.9,0-3.4,0.4-4.4,1.3c-1,0.9-1.5,2-1.5,3.5c0,0.9,0.2,1.7,0.6,2.3c0.4,0.7,1.1,1.3,2,1.9c0.9,0.6,3,1.7,6.4,3.3
			c4.4,2.1,7.5,4.2,9.1,6.4C169.8,33.9,170.6,36.5,170.6,39.6z"/>
		<path class="st2" d="M222.3,29c0,5.6-1,10.2-3,14c-2,3.8-4.9,6.5-8.7,8.3L222,64.1h-12.9l-8.7-10.6h-0.7c-7.3,0-12.8-2.1-16.7-6.3
			c-3.9-4.2-5.8-10.3-5.8-18.2c0-7.9,2-13.9,5.9-18.1c3.9-4.2,9.5-6.2,16.8-6.2c7.3,0,12.9,2.1,16.7,6.3
			C220.3,15.1,222.3,21.2,222.3,29z M187.7,29c0,5.3,1,9.3,3,12c2,2.7,5,4,9,4c8,0,12-5.3,12-16c0-10.7-4-16-12-16c-4,0-7,1.3-9,4
			C188.7,19.7,187.7,23.7,187.7,29z"/>
		<path class="st2" d="M232.1,52.8V5.4h10v39.1h19.2v8.3H232.1z"/>
	</g>
</g>
</svg>
