<?xml version="1.0" encoding="utf-8"?>
<!-- Generator: Adobe Illustrator 24.0.1, SVG Export Plug-In . SVG Version: 6.00 Build 0)  -->
<svg version="1.1" id="Layer_1" xmlns="http://www.w3.org/2000/svg" xmlns:xlink="http://www.w3.org/1999/xlink" x="0px" y="0px"
	 viewBox="0 0 300 300" style="enable-background:new 0 0 300 300;" xml:space="preserve">
<style type="text/css">
	.st0{fill:#FFFFFF;}
	.st1{fill:#044DB5;}
	.st2{fill:#A4E7FF;}
</style>
<g id="Layer_1_1_">
	<rect class="st0" width="300" height="300"/>
</g>
<g>
	<path class="st0" d="M252.1,7.3H47.9c-6.9,0-12.5,6-12.5,13v36.9h229.2V20.3C264.6,13.3,259.1,7.3,252.1,7.3z"/>
	<path class="st1" d="M264.6,62.2H35.4c-2.9,0-5-2.1-5-5V20.3c0-10.1,7.9-18,17.5-18h204.2c9.4,0,17.5,7.9,17.5,18v36.9
		C269.6,59.6,267.1,62.2,264.6,62.2z M40.4,52.1h219.2V20.3c0-4.4-3.5-7.9-7.5-7.9H47.9c-4,0-7.5,3.5-7.5,7.9V52.1L40.4,52.1z"/>
	<path class="st2" d="M35.4,57.2v141.4c0,6.9,5.5,13,12.5,13h204.2c6.9,0,12.5-6,12.5-13V57.2H35.4z"/>
	<path class="st1" d="M252.1,216.5H47.9c-9.4,0-17.5-7.9-17.5-18V57.2c0-2.9,2.1-5,5-5h229.2c2.9,0,5,2.1,5,5v141.4
		C269.6,208.5,261.6,216.5,252.1,216.5z M40.4,62.2v136.4c0,4.4,3.5,7.9,7.5,7.9h204.2c4,0,7.5-3.5,7.5-7.9V62.2H40.4z"/>
	<rect x="53.8" y="76.1" class="st0" width="192.3" height="116.6"/>
	<g>
		<ellipse class="st1" cx="234.2" cy="32.2" rx="7.9" ry="7.9"/>
		<ellipse class="st1" cx="206.8" cy="32.2" rx="7.9" ry="7.9"/>
		<ellipse class="st1" cx="179.4" cy="32.2" rx="7.9" ry="7.9"/>
	</g>
	<path class="st2" d="M145.5,24.2H62.8c-4.4,0-7.9,3.5-7.9,7.9s3.5,7.9,7.9,7.9h82.8c4.4,0,7.9-3.5,7.9-7.9S150.1,24.2,145.5,24.2z"
		/>
	<g>
		<path class="st1" d="M111,117.8c0,6.8-2.1,11.9-6.3,15.5c-4.2,3.6-10.2,5.4-18,5.4h-5.7v22.4H67.5V98.2h20.1
			c7.6,0,13.4,1.6,17.4,4.9C109,106.4,111,111.3,111,117.8z M80.9,127.8h4.4c4.1,0,7.2-0.8,9.2-2.4c2-1.6,3.1-4,3.1-7.1
			c0-3.1-0.9-5.4-2.6-6.9c-1.7-1.5-4.4-2.2-8-2.2h-6.1V127.8z"/>
		<path class="st1" d="M174.3,161.1h-13.3V134h-24.9v27.1h-13.3V98.2h13.3v24.6h24.9V98.2h13.3V161.1z"/>
		<path class="st1" d="M233.6,117.8c0,6.8-2.1,11.9-6.3,15.5c-4.2,3.6-10.2,5.4-18,5.4h-5.7v22.4h-13.3V98.2h20.1
			c7.6,0,13.4,1.6,17.4,4.9C231.6,106.4,233.6,111.3,233.6,117.8z M203.5,127.8h4.4c4.1,0,7.2-0.8,9.2-2.4c2-1.6,3.1-4,3.1-7.1
			c0-3.1-0.9-5.4-2.6-6.9c-1.7-1.5-4.4-2.2-8-2.2h-6.1V127.8z"/>
	</g>
	<g>
		<g>
			<path class="st0" d="M181.1,216.6L181.1,216.6c-4.3,0-7.7,3.4-7.7,7.7v-4.3c0-3.9-2.7-7.7-6.8-8c-4.6-0.3-8.3,3.1-8.3,7.7v-3.9
				c0-3.9-2.7-7.7-6.8-8c-4.6-0.3-8.3,3.1-8.3,7.7v-33.2c0-3.9-2.7-7.7-6.8-8c-4.6-0.3-8.3,3.1-8.3,7.7v51.3c0-4.6-3.9-8-8.3-7.7
				c-4,0.3-6.8,4-6.8,8v20.9c0,0,12.6,20,24.5,28.3v11.6h41.2v-14.7l10.4-17.5v-37.8C188.8,220.4,185.4,216.6,181.1,216.6z"/>
		</g>
		<path class="st1" d="M191.5,260v-35.5c0-5.8-4.9-10.8-10.8-10.8c-1.8,0-3.9,0.6-5.5,1.5c-1.5-3.4-4.9-5.8-8.6-6.2
			c-2.5-0.3-4.9,0.3-6.8,1.5c-1.5-3.4-4.6-5.8-8.3-6.2c-1.8-0.3-3.7,0-5.5,0.9v-23.3c0-5.5-3.9-10.4-9.5-11.1
			c-6.4-0.6-11.6,4.6-11.6,10.8v41.8c-1.5-0.6-3.4-1.3-5.5-0.9c-5.2,0.6-9.5,5.5-9.5,11.1v20.9c0,0.6,0.3,0.9,0.6,1.5
			c0.2,0.2,1.9,2.9,4.6,6.6c0.1,0.2,0.2,0.3,0.3,0.5c4.9,6.8,12,15.6,19.3,21.2v10.2c0,1.8,1.3,3.1,3.1,3.1h41.2
			c0.6,0,1.5-0.3,2.1-0.9s0.9-1.3,0.9-2.1v-14l9.4-16.6C191.6,263.3,191.5,260,191.5,260z M186,261.3l-10.1,16.8
			c-0.3,0.3-0.3,0.9-0.3,1.5v11.6h-34.4v-8.9c0-0.9-0.3-1.8-1.3-2.5c-10.2-7.1-20.9-23.1-23.3-26.7v-19.9c0-2.5,1.8-4.6,3.9-4.9
			c2.5-0.3,4.9,1.8,4.9,4.6l0,0v13.8h6.2v-13.8l0,0v-51.3c0-2.7,2.1-4.9,4.9-4.6c2.1,0.3,3.9,2.5,3.9,4.9v33.2v0.3v16.2h6.2v-16.2
			c0-2.7,2.1-4.9,4.9-4.6c2.1,0.3,3.9,2.5,3.9,4.9v3.7v0.3v12h6.2v-12c0-2.7,2.1-4.9,4.9-4.6c2.1,0.3,3.9,2.5,3.9,4.9v4.3
			c0,0.1,0,0.2,0,0.3v7.1h6.2v-7.6c0.1-2.4,2.2-4.4,4.6-4.4c2.5,0,4.6,2.1,4.6,4.6L186,261.3L186,261.3L186,261.3z"/>
	</g>
</g>
</svg>
