<?xml version="1.0" encoding="utf-8"?>
<!-- Generator: Adobe Illustrator 22.0.1, SVG Export Plug-In . SVG Version: 6.00 Build 0)  -->
<svg version="1.1" id="Layer_1" xmlns="http://www.w3.org/2000/svg" xmlns:xlink="http://www.w3.org/1999/xlink" x="0px" y="0px"
	 viewBox="0 0 80 80" style="enable-background:new 0 0 80 80;" xml:space="preserve">
<style type="text/css">
	.st0{opacity:0;}
	.st1{fill:#FFFFFF;}
	.st2{fill:#932279;}
	.st3{fill:#EFA724;}
	.st4{fill:#262577;}
	.st5{fill:#9CCD2A;}
</style>
<g class="st0">
	<rect x="25" y="28.9" class="st1" width="28.9" height="28.9"/>
</g>
<path class="st2" d="M33.7,37.1l2.9,2.9l-2.9,2.9H13.3v9.6L0.9,40l12.4-12.3v9.4H33.7L33.7,37.1z M42.7,12.6h24.7v24.7H42.7V12.6z"
	/>
<path class="st3" d="M42.9,33.7L40,36.6l-2.9-2.9V13.3h-9.6L40,0.9l12.3,12.4h-9.4V33.7L42.9,33.7z M42.7,42.7h24.7v24.7H42.7
	L42.7,42.7L42.7,42.7z"/>
<path class="st4" d="M46.3,42.9L43.4,40l2.9-2.9h20.4v-9.6L79.1,40L66.7,52.3v-9.4H46.3z M12.6,42.7h24.7v24.7H12.6L12.6,42.7
	L12.6,42.7z"/>
<path class="st5" d="M37.1,46.3l2.9-2.9l2.9,2.9v20.4h9.6L40,79.1L27.7,66.7h9.4L37.1,46.3L37.1,46.3z M12.6,12.6h24.7v24.7H12.6
	V12.6L12.6,12.6z"/>
<path class="st1" d="M11.7,11.7h26.5v26.5H11.7V11.7z M13.5,36.5h23v-23h-23L13.5,36.5L13.5,36.5z M41.8,11.7h26.5v26.5H41.8V11.7
	L41.8,11.7z M43.5,36.5h23v-23h-23V36.5z M41.8,41.8h26.5v26.5H41.8V41.8L41.8,41.8z M43.5,66.5h23v-23h-23V66.5z M11.7,41.8h26.5
	v26.5H11.7L11.7,41.8L11.7,41.8z M13.5,66.5h23v-23h-23L13.5,66.5L13.5,66.5z"/>
<path class="st1" d="M18.8,58.8L0,40l18.8-18.7L37.5,40L18.8,58.8L18.8,58.8z M2.5,40l16.3,16.3L35,40L18.7,23.8L2.5,40z M40,37.5
	L21.3,18.8L40,0l18.7,18.8L40,37.5L40,37.5z M23.8,18.8L40,35l16.3-16.2L40,2.5L23.8,18.8z M61.3,58.8L42.5,40l18.7-18.7L80,40
	L61.3,58.8L61.3,58.8z M45,40l16.3,16.3L77.5,40L61.3,23.8L45,40z M40,80L21.3,61.3L40,42.5l18.7,18.7L40,80L40,80z M23.8,61.3
	L40,77.5l16.3-16.2L40,45L23.8,61.3z"/>
</svg>
