<?xml version="1.0" encoding="utf-8"?>
<!-- Generator: Adobe Illustrator 22.0.1, SVG Export Plug-In . SVG Version: 6.00 Build 0)  -->
<svg version="1.1" id="Layer_1" xmlns="http://www.w3.org/2000/svg" xmlns:xlink="http://www.w3.org/1999/xlink" x="0px" y="0px"
	 viewBox="0 0 1984.3 420.9" style="enable-background:new 0 0 1984.3 420.9;" xml:space="preserve">
<style type="text/css">
	.st0{opacity:0.1;}
	.st1{fill:#FF6C2C;}
</style>
<g class="st0">
	<path class="st1" d="M218.2,420.6c5.4-20.3,10.4-39.4,15.5-58.5c28.9-108.3,57.8-216.7,86.7-325c5.9-22,21.6-34.5,44.7-34.7
		c35-0.2,70-0.1,105,0c73.1,0.1,124.7,46.3,145,98.2c14.6,37.3,13.5,74.6,0.4,111.7c-19.7,55.8-58.7,90.3-116.7,102.9
		c-7.1,1.5-14.5,2.3-21.8,2.3c-31.8,0.3-63.7,0.1-95.5,0.1c-1.5,0-2.9-0.2-5-0.3c2.4-9.4,4.7-18.4,7.1-27.3
		c3.6-13.5,7.2-27,10.9-40.4c5.5-20.3,22.1-33.1,43.3-33.2c10,0,20,0,30,0c28-0.1,51.5-21.8,54.9-49.6c3.6-29.7-17.4-57.1-44.8-61.5
		c-11.2-1.8-22.9-1.1-34.4-1.2c-9.7-0.1-19.3,0.7-29,0.3c-5.5-0.2-7.5,1.8-8.8,6.8c-15.2,57.3-30.6,114.6-46,171.9
		c-9.4,35-18.7,70-28.2,104.9c-5.4,19.8-22.2,32.5-42.7,32.5c-21.5,0-43,0-64.5,0C222.6,420.6,220.9,420.6,218.2,420.6z"/>
	<path class="st1" d="M1681.8,327.4c-3.3,12.4-6.4,24-9.4,35.5c-2.2,8.2-4.4,16.4-6.6,24.5c-5.5,20.6-21.9,33.2-43.2,33.2
		c-65.3,0-130.6,0-196,0c-43.2,0-79-31.5-85.4-74.1c-2.4-16,1.4-31,5.5-46.1c9.6-35.6,18.5-71.4,28.9-106.8
		c14.3-48.6,47-77.6,97.1-86.3c5.2-0.9,10.6-1,15.9-1c47.7-0.1,95.3-0.3,143,0.1c41.5,0.4,77.1,33,82.2,74.3
		c1.5,11.6,0.8,22.9-2.1,34.1c-3.8,14.4-6.7,29.3-12.2,43.1c-10.7,27.1-31.5,42.6-60.7,43.6c-36.5,1.2-73,0.4-109.5,0.5
		c-15.2,0-30.3,0-45.5,0c-1.9,0-3.9-0.2-6.9-0.4c4.7-15.8,8-31.4,14-45.8c5.7-13.8,17.8-21.7,33-22.4c20.3-0.9,40.6-0.7,60.9-1
		c3.3-0.1,6.6-0.7,9.9-0.8c5.8-0.2,8.9-3.6,9.9-8.8c0.9-4.8,2.1-9.8,1.4-14.5c-0.7-5.4-5.7-8.7-11.2-8.7c-33.2-0.1-66.3-0.1-99.5,0
		c-10.4,0-19.4,8.7-22.8,21.3c-3.2,12-6.4,24.1-9.5,36.1c-4.3,16.4-8.4,32.8-13,49.1c-2.8,9.8,3.7,21.1,15.1,20.4
		c10.3-0.6,20.6,0.7,30.9,0.8c59.7,0.1,119.3,0,179,0C1677.3,327.4,1679.2,327.4,1681.8,327.4z"/>
	<path class="st1" d="M840.2,231.3c-1.3,5.4-2.4,10.2-3.7,14.9c-1.9,7.2-4,14.4-5.8,21.7c-4.7,18.4-21.6,33.6-42.7,33.1
		c-19.6-0.4-39.3,0.3-59,0.6c-2.6,0-5.3,0.5-7.9,1.1c-5.6,1.3-8.3,4.9-8.5,10.8c-0.2,5.7,2.5,9.7,8,11.1c4.3,1,8.9,1.6,13.3,1.7
		c30.7,0.2,61.3,0.2,92,0.1c11.1,0,15.8-4,18.7-14.8c8.7-32.4,17.5-64.8,26-97.2c3.3-12.4,2.6-13.2-10-15c-3.8-0.6-7.6-0.5-11.5-0.6
		c-51.2,0-102.3,0-153.5,0c-29.9,0-49.8-24.7-43.2-54c2.7-12,6.1-23.8,9.2-35.7c0.7-2.6,2-4,4.9-3.8c1.7,0.2,3.3,0,5,0
		c72.5,0,145,0.3,217.5-0.1c33.1-0.2,58.7,13.2,76.5,40.7c13.5,20.9,16.8,44,10.5,68c-13.5,51.3-27.2,102.4-41.2,153.5
		c-8,29.2-27.6,46.3-57.1,52c-4.8,0.9-10,0.6-15,0.6c-55-0.1-110-0.2-165-0.3c-43.3-0.1-77.4-25.7-88.6-67.5
		c-11.6-43.3,10.2-103.9,67.2-118c6.6-1.6,13.5-2.6,20.2-2.6c46.2-0.2,92.3-0.1,138.5-0.1C836.5,231.3,838,231.3,840.2,231.3z"/>
	<path class="st1" d="M1112.5,106.3c22.2,0,44.3,0,66.5,0c62.1-0.1,118.4,42.4,139.2,98c7,18.8,10.8,38.1,10.4,58
		c-0.4,17.9-4.9,35.1-9.6,52.3c-7.6,27.5-14.6,55.2-22.1,82.8c-4,14.7-15.3,23.2-30.4,23.2c-18.5,0-37,0-55.5,0
		c-13.2,0-21.8-10.7-18.5-23.4c9.8-37.6,19.7-75.2,29.6-112.8c4.2-16,5.7-31.8-2.8-47c-10.6-19-26.7-29.4-48.5-29.8
		c-18-0.3-36,0.1-54-0.2c-5-0.1-6.8,1.6-8,6.2c-15.2,57.5-30.6,114.9-45.9,172.4c-1.2,4.5-2.3,9-3.7,13.4c-4,12.5-15.5,21-28.5,21.1
		c-19,0.1-38,0.1-57,0c-12.9,0-21.6-11.2-18.3-23.8c15.5-58.6,31.1-117.2,46.6-175.8c9.7-36.4,19.5-72.9,29-109.3
		c1.1-4.1,2.8-5.6,7.1-5.6c24.8,0.2,49.7,0.1,74.5,0.1C1112.5,106.2,1112.5,106.2,1112.5,106.3z"/>
	<path class="st1" d="M275,106.2c-5.8,22.3-11,43.4-17,64.3c-2.1,7.2-5.1,14.6-9.4,20.6c-8.3,11.6-20.7,16.3-34.8,16.4
		c-18.3,0.1-36.7,0-55,0c-27.5,0.1-50.8,21.9-54.3,49.1c-3.6,28.2,15.3,57.2,45.1,62.2c4.9,0.8,9.9,1,14.9,1.1
		c10.2,0.2,20.3-0.1,30.5,0.3c11.7,0.5,19.8,11.3,16.9,22.6c-6.5,24.7-13.2,49.4-20,74.1c-0.4,1.5-2.4,3.6-3.6,3.6
		c-22.4-0.1-45.1,2.3-67.1-3.6c-63.9-17.1-104.8-57.7-116.3-123c-10.8-61.2,8.8-113.8,56.8-154.3c22.1-18.6,48.3-29.1,77.2-32.3
		c7.4-0.8,14.9-1.1,22.4-1.1c35.7-0.1,71.3,0,107,0C270.2,106.2,272.1,106.2,275,106.2z"/>
	<path class="st1" d="M1683.1,420.6c5.8-21.9,11.3-42.6,16.8-63.3c28.9-108.7,57.8-217.3,86.5-326c3.4-12.9,9.2-23.2,22.8-27.1
		c3.8-1.1,7.9-1.6,11.8-1.7c16.7-0.2,33.3-0.2,50,0c3.4,0,7,0.5,10.3,1.5c9.1,2.9,14.2,12.5,11.7,21.9
		c-13.2,49.4-26.5,98.8-39.7,148.2c-13.2,49.1-25.7,98.4-39.8,147.2c-15,51.9-50.6,83-102.5,96.1c-7.2,1.8-14.8,2.1-22.2,3.1
		C1687.3,420.7,1685.6,420.6,1683.1,420.6z"/>
	<path class="st1" d="M1983.9,38.2c-0.2,19.7-15.8,35.3-35.3,35.3c-19.8,0-35.3-16.4-35.1-37c0.2-18.1,16.5-33.9,35.1-33.9
		C1968.5,2.4,1984.1,18.2,1983.9,38.2z M1949.3,6.5c-17.5-0.1-31,13.5-31.8,30.5c-0.7,14.9,11.3,32,31,32.3
		c17.1,0.3,31.6-14.2,31.7-31.3C1980.3,21.1,1966.1,6.6,1949.3,6.5z"/>
	<path class="st1" d="M1955.3,40.5c3.5,5.9,6.7,11.4,10.1,17.3c-3.9,1.5-6.5,0.9-8.3-2.7c-1.8-3.5-4.1-6.8-6-10.3
		c-1.5-2.9-4.1-3.9-6.6-2.7c-1.3,0.6-2.2,3.2-2.5,5.1c-0.4,2.8,0.1,5.7-0.3,8.4c-0.2,1.1-1.9,2-2.9,3c-0.9-1-2.5-1.9-2.5-2.9
		c-0.2-11.8-0.2-23.6,0-35.4c0-1,1.7-2.7,2.6-2.7c4.8-0.2,9.7-0.3,14.4,0.2c4.6,0.5,8,3.3,9,8.1c0.9,4.7,0.1,8.9-3.8,12.2
		C1957.7,38.7,1956.8,39.4,1955.3,40.5z M1941.9,29.4c0.4,3.5-1.3,8,4.9,7.8c6.1-0.2,9.6-2.9,9.7-7.6c0.1-5.2-2.6-6.8-10.1-7.1
		C1940.2,22.1,1942.5,26.6,1941.9,29.4z"/>
</g>
</svg>
