<?xml version="1.0" encoding="utf-8"?>
<!-- Generator: Adobe Illustrator 22.0.1, SVG Export Plug-In . SVG Version: 6.00 Build 0)  -->
<svg version="1.1" id="Layer_1" xmlns="http://www.w3.org/2000/svg" xmlns:xlink="http://www.w3.org/1999/xlink" x="0px" y="0px"
	 viewBox="0 0 512 350" style="enable-background:new 0 0 512 350;" xml:space="preserve">
<style type="text/css">
	.st0{opacity:0;}
	.st1{fill:#FFFFFF;}
	.st2{fill:#E6F4FC;}
	.st3{fill:#6CA8D8;}
	.st4{fill:#73ACE5;}
	.st5{fill:#FEC70D;stroke:#E2AC13;stroke-width:1.6479;stroke-miterlimit:10;}
	.st6{fill:#FFFFFF;stroke:#E2AC13;stroke-width:1.488;stroke-miterlimit:10;}
</style>
<g id="Layer_1_1_" class="st0">
	<rect class="st1" width="512" height="350"/>
</g>
<g id="server">
	<rect x="18.7" y="25.5" class="st2" width="446.2" height="70"/>
	<rect x="18.7" y="122.6" class="st2" width="446.2" height="70"/>
	<rect x="18.7" y="219.7" class="st2" width="446.2" height="70"/>
	<g>
		<g>
			<path class="st3" d="M457.1,102.6c7.7,0,13.9-6.3,13.9-13.9V32.9c0-7.7-6.3-13.9-13.9-13.9H25.5c-7.7,0-13.9,6.3-13.9,13.9v55.7
				c0,7.7,6.3,13.9,13.9,13.9h194.6v13.9H25.5c-7.7,0-13.9,6.3-13.9,13.9V186c0,7.7,6.3,13.9,13.9,13.9h194.6v13.9H25.5
				c-7.7,0-13.9,6.3-13.9,13.9v55.7c0,7.7,6.3,13.9,13.9,13.9h431.6c7.7,0,13.9-6.3,13.9-13.9V228c0-7.7-6.3-13.9-13.9-13.9h-13.9
				v-13.9h13.9c7.7,0,13.9-6.3,13.9-13.9v-55.8c0-7.7-6.3-13.9-13.9-13.9h-13.9v-13.9L457.1,102.6L457.1,102.6z M457.1,223.4
				c2.6,0,4.6,2.1,4.6,4.6v55.7c0,2.6-2.1,4.6-4.6,4.6H25.5c-2.6,0-4.6-2.1-4.6-4.6V228c0-2.6,2.1-4.6,4.6-4.6H457.1z M229.4,214.1
				v-13.9h9.3v13.9H229.4z M248,214.1v-13.9h167.3v13.9H248z M424.6,214.1v-13.9h9.3v13.9H424.6z M457.1,125.9
				c2.6,0,4.6,2.1,4.6,4.6v55.7c0,2.6-2.1,4.6-4.6,4.6H25.5c-2.6,0-4.6-2.1-4.6-4.6v-55.7c0-2.6,2.1-4.6,4.6-4.6H457.1z
				 M229.4,116.5v-13.9h9.3v13.9H229.4z M248,116.5v-13.9h167.3v13.9H248z M424.6,116.5v-13.9h9.3v13.9H424.6z M25.5,93.3
				c-2.6,0-4.6-2.1-4.6-4.6V32.9c0-2.6,2.1-4.6,4.6-4.6h431.6c2.6,0,4.6,2.1,4.6,4.6v55.7c0,2.6-2.1,4.6-4.6,4.6L25.5,93.3
				L25.5,93.3z"/>
		</g>
	</g>
	<g>
		<g>
			<path class="st4" d="M172.5,56.1H78.8C76.2,48.8,68.3,45,61,47.6s-11.1,10.5-8.5,17.8C55,72.7,63,76.5,70.3,73.9
				c3.9-1.5,7.1-4.5,8.5-8.5h93.7c2.6,0,4.6-2.1,4.6-4.6S175,56.1,172.5,56.1z M65.7,65.4c-2.6,0-4.6-2.1-4.6-4.6s2.1-4.6,4.6-4.6
				s4.6,2.1,4.6,4.6C70.3,63.3,68.1,65.4,65.7,65.4z"/>
		</g>
	</g>
	<g>
		<g>
			<g>
				<path class="st4" d="M401.3,37.5L401.3,37.5c2.6,0,4.6,2.1,4.6,4.6l0,0c0,2.6-2.1,4.6-4.6,4.6l0,0c-2.6,0-4.6-2.1-4.6-4.6l0,0
					C396.7,39.6,398.8,37.5,401.3,37.5z"/>
			</g>
		</g>
		<g>
			<g>
				<path class="st4" d="M419.9,37.5L419.9,37.5c2.6,0,4.6,2.1,4.6,4.6l0,0c0,2.6-2.1,4.6-4.6,4.6l0,0c-2.6,0-4.6-2.1-4.6-4.6l0,0
					C415.3,39.6,417.3,37.5,419.9,37.5z"/>
			</g>
		</g>
		<g>
			<g>
				<path class="st4" d="M438.5,37.5L438.5,37.5c2.6,0,4.6,2.1,4.6,4.6l0,0c0,2.6-2.1,4.6-4.6,4.6l0,0c-2.6,0-4.6-2.1-4.6-4.6l0,0
					C433.8,39.6,435.9,37.5,438.5,37.5z"/>
			</g>
		</g>
		<g>
			<g>
				<path class="st4" d="M382.8,37.5L382.8,37.5c2.6,0,4.6,2.1,4.6,4.6l0,0c0,2.6-2.1,4.6-4.6,4.6l0,0c-2.6,0-4.6-2.1-4.6-4.6l0,0
					C378.1,39.6,380.2,37.5,382.8,37.5z"/>
			</g>
		</g>
		<g>
			<g>
				<path class="st4" d="M364.1,37.5L364.1,37.5c2.6,0,4.6,2.1,4.6,4.6l0,0c0,2.6-2.1,4.6-4.6,4.6l0,0c-2.6,0-4.6-2.1-4.6-4.6l0,0
					C359.4,39.6,361.6,37.5,364.1,37.5z"/>
			</g>
		</g>
		<g>
			<g>
				<path class="st4" d="M401.3,56.1L401.3,56.1c2.6,0,4.6,2.1,4.6,4.6l0,0c0,2.6-2.1,4.6-4.6,4.6l0,0c-2.6,0-4.6-2.1-4.6-4.6l0,0
					C396.7,58.2,398.8,56.1,401.3,56.1z"/>
			</g>
		</g>
		<g>
			<g>
				<path class="st4" d="M419.9,56.1L419.9,56.1c2.6,0,4.6,2.1,4.6,4.6l0,0c0,2.6-2.1,4.6-4.6,4.6l0,0c-2.6,0-4.6-2.1-4.6-4.6l0,0
					C415.3,58.2,417.3,56.1,419.9,56.1z"/>
			</g>
		</g>
		<g>
			<g>
				<path class="st4" d="M438.5,56.1L438.5,56.1c2.6,0,4.6,2.1,4.6,4.6l0,0c0,2.6-2.1,4.6-4.6,4.6l0,0c-2.6,0-4.6-2.1-4.6-4.6l0,0
					C433.8,58.2,435.9,56.1,438.5,56.1z"/>
			</g>
		</g>
		<g>
			<g>
				<path class="st4" d="M382.8,56.1L382.8,56.1c2.6,0,4.6,2.1,4.6,4.6l0,0c0,2.6-2.1,4.6-4.6,4.6l0,0c-2.6,0-4.6-2.1-4.6-4.6l0,0
					C378.1,58.2,380.2,56.1,382.8,56.1z"/>
			</g>
		</g>
		<g>
			<g>
				<path class="st4" d="M364.1,56.1L364.1,56.1c2.6,0,4.6,2.1,4.6,4.6l0,0c0,2.6-2.1,4.6-4.6,4.6l0,0c-2.6,0-4.6-2.1-4.6-4.6l0,0
					C359.4,58.2,361.6,56.1,364.1,56.1z"/>
			</g>
		</g>
		<g>
			<g>
				<path class="st4" d="M401.3,74.7L401.3,74.7c2.6,0,4.6,2.1,4.6,4.6l0,0c0,2.6-2.1,4.6-4.6,4.6l0,0c-2.6,0-4.6-2.1-4.6-4.6l0,0
					C396.7,76.9,398.8,74.7,401.3,74.7z"/>
			</g>
		</g>
		<g>
			<g>
				<path class="st4" d="M419.9,74.7L419.9,74.7c2.6,0,4.6,2.1,4.6,4.6l0,0c0,2.6-2.1,4.6-4.6,4.6l0,0c-2.6,0-4.6-2.1-4.6-4.6l0,0
					C415.3,76.9,417.3,74.7,419.9,74.7z"/>
			</g>
		</g>
		<g>
			<g>
				<path class="st4" d="M438.5,74.7L438.5,74.7c2.6,0,4.6,2.1,4.6,4.6l0,0c0,2.6-2.1,4.6-4.6,4.6l0,0c-2.6,0-4.6-2.1-4.6-4.6l0,0
					C433.8,76.9,435.9,74.7,438.5,74.7z"/>
			</g>
		</g>
		<g>
			<g>
				<path class="st4" d="M382.8,74.7L382.8,74.7c2.6,0,4.6,2.1,4.6,4.6l0,0c0,2.6-2.1,4.6-4.6,4.6l0,0c-2.6,0-4.6-2.1-4.6-4.6l0,0
					C378.1,76.9,380.2,74.7,382.8,74.7z"/>
			</g>
		</g>
		<g>
			<g>
				<path class="st4" d="M364.1,74.7L364.1,74.7c2.6,0,4.6,2.1,4.6,4.6l0,0c0,2.6-2.1,4.6-4.6,4.6l0,0c-2.6,0-4.6-2.1-4.6-4.6l0,0
					C359.4,76.9,361.6,74.7,364.1,74.7z"/>
			</g>
		</g>
		<g>
			<g>
				<path class="st4" d="M341.4,37.5L341.4,37.5c2.6,0,4.6,2.1,4.6,4.6l0,0c0,2.6-2.1,4.6-4.6,4.6l0,0c-2.6,0-4.6-2.1-4.6-4.6l0,0
					C336.7,39.6,338.8,37.5,341.4,37.5z"/>
			</g>
		</g>
		<g>
			<g>
				<path class="st4" d="M341.4,56.1L341.4,56.1c2.6,0,4.6,2.1,4.6,4.6l0,0c0,2.6-2.1,4.6-4.6,4.6l0,0c-2.6,0-4.6-2.1-4.6-4.6l0,0
					C336.7,58.2,338.8,56.1,341.4,56.1z"/>
			</g>
		</g>
		<g>
			<g>
				<path class="st4" d="M341.4,74.7L341.4,74.7c2.6,0,4.6,2.1,4.6,4.6l0,0c0,2.6-2.1,4.6-4.6,4.6l0,0c-2.6,0-4.6-2.1-4.6-4.6l0,0
					C336.7,76.9,338.8,74.7,341.4,74.7z"/>
			</g>
		</g>
		<g>
			<g>
				<path class="st4" d="M319.4,37.5L319.4,37.5c2.6,0,4.6,2.1,4.6,4.6l0,0c0,2.6-2.1,4.6-4.6,4.6l0,0c-2.6,0-4.6-2.1-4.6-4.6l0,0
					C314.7,39.6,316.8,37.5,319.4,37.5z"/>
			</g>
		</g>
		<g>
			<g>
				<path class="st4" d="M319.4,56.1L319.4,56.1c2.6,0,4.6,2.1,4.6,4.6l0,0c0,2.6-2.1,4.6-4.6,4.6l0,0c-2.6,0-4.6-2.1-4.6-4.6l0,0
					C314.7,58.2,316.8,56.1,319.4,56.1z"/>
			</g>
		</g>
		<g>
			<g>
				<path class="st4" d="M319.4,74.7L319.4,74.7c2.6,0,4.6,2.1,4.6,4.6l0,0c0,2.6-2.1,4.6-4.6,4.6l0,0c-2.6,0-4.6-2.1-4.6-4.6l0,0
					C314.7,76.9,316.8,74.7,319.4,74.7z"/>
			</g>
		</g>
	</g>
	<g>
		<g>
			<g>
				<path class="st4" d="M401.3,134.4L401.3,134.4c2.6,0,4.6,2.1,4.6,4.6l0,0c0,2.6-2.1,4.6-4.6,4.6l0,0c-2.6,0-4.6-2.1-4.6-4.6l0,0
					C396.7,136.4,398.8,134.4,401.3,134.4z"/>
			</g>
		</g>
		<g>
			<g>
				<path class="st4" d="M419.9,134.4L419.9,134.4c2.6,0,4.6,2.1,4.6,4.6l0,0c0,2.6-2.1,4.6-4.6,4.6l0,0c-2.6,0-4.6-2.1-4.6-4.6l0,0
					C415.3,136.4,417.3,134.4,419.9,134.4z"/>
			</g>
		</g>
		<g>
			<g>
				<path class="st4" d="M438.5,134.4L438.5,134.4c2.6,0,4.6,2.1,4.6,4.6l0,0c0,2.6-2.1,4.6-4.6,4.6l0,0c-2.6,0-4.6-2.1-4.6-4.6l0,0
					C433.8,136.4,435.9,134.4,438.5,134.4z"/>
			</g>
		</g>
		<g>
			<g>
				<path class="st4" d="M382.8,134.4L382.8,134.4c2.6,0,4.6,2.1,4.6,4.6l0,0c0,2.6-2.1,4.6-4.6,4.6l0,0c-2.6,0-4.6-2.1-4.6-4.6l0,0
					C378.1,136.4,380.2,134.4,382.8,134.4z"/>
			</g>
		</g>
		<g>
			<g>
				<path class="st4" d="M364.1,134.4L364.1,134.4c2.6,0,4.6,2.1,4.6,4.6l0,0c0,2.6-2.1,4.6-4.6,4.6l0,0c-2.6,0-4.6-2.1-4.6-4.6l0,0
					C359.4,136.4,361.6,134.4,364.1,134.4z"/>
			</g>
		</g>
		<g>
			<g>
				<path class="st4" d="M401.3,153L401.3,153c2.6,0,4.6,2.1,4.6,4.6l0,0c0,2.6-2.1,4.6-4.6,4.6l0,0c-2.6,0-4.6-2.1-4.6-4.6l0,0
					C396.7,155,398.8,153,401.3,153z"/>
			</g>
		</g>
		<g>
			<g>
				<path class="st4" d="M419.9,153L419.9,153c2.6,0,4.6,2.1,4.6,4.6l0,0c0,2.6-2.1,4.6-4.6,4.6l0,0c-2.6,0-4.6-2.1-4.6-4.6l0,0
					C415.3,155,417.3,153,419.9,153z"/>
			</g>
		</g>
		<g>
			<g>
				<path class="st4" d="M438.5,153L438.5,153c2.6,0,4.6,2.1,4.6,4.6l0,0c0,2.6-2.1,4.6-4.6,4.6l0,0c-2.6,0-4.6-2.1-4.6-4.6l0,0
					C433.8,155,435.9,153,438.5,153z"/>
			</g>
		</g>
		<g>
			<g>
				<path class="st4" d="M382.8,153L382.8,153c2.6,0,4.6,2.1,4.6,4.6l0,0c0,2.6-2.1,4.6-4.6,4.6l0,0c-2.6,0-4.6-2.1-4.6-4.6l0,0
					C378.1,155,380.2,153,382.8,153z"/>
			</g>
		</g>
		<g>
			<g>
				<path class="st4" d="M364.1,153L364.1,153c2.6,0,4.6,2.1,4.6,4.6l0,0c0,2.6-2.1,4.6-4.6,4.6l0,0c-2.6,0-4.6-2.1-4.6-4.6l0,0
					C359.4,155,361.6,153,364.1,153z"/>
			</g>
		</g>
		<g>
			<g>
				<path class="st4" d="M401.3,171.5L401.3,171.5c2.6,0,4.6,2.1,4.6,4.6l0,0c0,2.6-2.1,4.6-4.6,4.6l0,0c-2.6,0-4.6-2.1-4.6-4.6l0,0
					C396.7,173.6,398.8,171.5,401.3,171.5z"/>
			</g>
		</g>
		<g>
			<g>
				<path class="st4" d="M419.9,171.5L419.9,171.5c2.6,0,4.6,2.1,4.6,4.6l0,0c0,2.6-2.1,4.6-4.6,4.6l0,0c-2.6,0-4.6-2.1-4.6-4.6l0,0
					C415.3,173.6,417.3,171.5,419.9,171.5z"/>
			</g>
		</g>
		<g>
			<g>
				<path class="st4" d="M438.5,171.5L438.5,171.5c2.6,0,4.6,2.1,4.6,4.6l0,0c0,2.6-2.1,4.6-4.6,4.6l0,0c-2.6,0-4.6-2.1-4.6-4.6l0,0
					C433.8,173.6,435.9,171.5,438.5,171.5z"/>
			</g>
		</g>
		<g>
			<g>
				<path class="st4" d="M382.8,171.5L382.8,171.5c2.6,0,4.6,2.1,4.6,4.6l0,0c0,2.6-2.1,4.6-4.6,4.6l0,0c-2.6,0-4.6-2.1-4.6-4.6l0,0
					C378.1,173.6,380.2,171.5,382.8,171.5z"/>
			</g>
		</g>
		<g>
			<g>
				<path class="st4" d="M364.1,171.5L364.1,171.5c2.6,0,4.6,2.1,4.6,4.6l0,0c0,2.6-2.1,4.6-4.6,4.6l0,0c-2.6,0-4.6-2.1-4.6-4.6l0,0
					C359.4,173.6,361.6,171.5,364.1,171.5z"/>
			</g>
		</g>
		<g>
			<g>
				<path class="st4" d="M341.4,134.4L341.4,134.4c2.6,0,4.6,2.1,4.6,4.6l0,0c0,2.6-2.1,4.6-4.6,4.6l0,0c-2.6,0-4.6-2.1-4.6-4.6l0,0
					C336.7,136.4,338.8,134.4,341.4,134.4z"/>
			</g>
		</g>
		<g>
			<g>
				<path class="st4" d="M341.4,153L341.4,153c2.6,0,4.6,2.1,4.6,4.6l0,0c0,2.6-2.1,4.6-4.6,4.6l0,0c-2.6,0-4.6-2.1-4.6-4.6l0,0
					C336.7,155,338.8,153,341.4,153z"/>
			</g>
		</g>
		<g>
			<g>
				<path class="st4" d="M341.4,171.5L341.4,171.5c2.6,0,4.6,2.1,4.6,4.6l0,0c0,2.6-2.1,4.6-4.6,4.6l0,0c-2.6,0-4.6-2.1-4.6-4.6l0,0
					C336.7,173.6,338.8,171.5,341.4,171.5z"/>
			</g>
		</g>
		<g>
			<g>
				<path class="st4" d="M319.4,134.4L319.4,134.4c2.6,0,4.6,2.1,4.6,4.6l0,0c0,2.6-2.1,4.6-4.6,4.6l0,0c-2.6,0-4.6-2.1-4.6-4.6l0,0
					C314.7,136.4,316.8,134.4,319.4,134.4z"/>
			</g>
		</g>
		<g>
			<g>
				<path class="st4" d="M319.4,153L319.4,153c2.6,0,4.6,2.1,4.6,4.6l0,0c0,2.6-2.1,4.6-4.6,4.6l0,0c-2.6,0-4.6-2.1-4.6-4.6l0,0
					C314.7,155,316.8,153,319.4,153z"/>
			</g>
		</g>
		<g>
			<g>
				<path class="st4" d="M319.4,171.5L319.4,171.5c2.6,0,4.6,2.1,4.6,4.6l0,0c0,2.6-2.1,4.6-4.6,4.6l0,0c-2.6,0-4.6-2.1-4.6-4.6l0,0
					C314.7,173.6,316.8,171.5,319.4,171.5z"/>
			</g>
		</g>
	</g>
	<g>
		<g>
			<g>
				<path class="st4" d="M401.3,232.5L401.3,232.5c2.6,0,4.6,2.1,4.6,4.6l0,0c0,2.6-2.1,4.6-4.6,4.6l0,0c-2.6,0-4.6-2.1-4.6-4.6l0,0
					C396.7,234.5,398.8,232.5,401.3,232.5z"/>
			</g>
		</g>
		<g>
			<g>
				<path class="st4" d="M419.9,232.5L419.9,232.5c2.6,0,4.6,2.1,4.6,4.6l0,0c0,2.6-2.1,4.6-4.6,4.6l0,0c-2.6,0-4.6-2.1-4.6-4.6l0,0
					C415.3,234.5,417.3,232.5,419.9,232.5z"/>
			</g>
		</g>
		<g>
			<g>
				<path class="st4" d="M438.5,232.5L438.5,232.5c2.6,0,4.6,2.1,4.6,4.6l0,0c0,2.6-2.1,4.6-4.6,4.6l0,0c-2.6,0-4.6-2.1-4.6-4.6l0,0
					C433.8,234.5,435.9,232.5,438.5,232.5z"/>
			</g>
		</g>
		<g>
			<g>
				<path class="st4" d="M382.8,232.5L382.8,232.5c2.6,0,4.6,2.1,4.6,4.6l0,0c0,2.6-2.1,4.6-4.6,4.6l0,0c-2.6,0-4.6-2.1-4.6-4.6l0,0
					C378.1,234.5,380.2,232.5,382.8,232.5z"/>
			</g>
		</g>
		<g>
			<g>
				<path class="st4" d="M364.1,232.5L364.1,232.5c2.6,0,4.6,2.1,4.6,4.6l0,0c0,2.6-2.1,4.6-4.6,4.6l0,0c-2.6,0-4.6-2.1-4.6-4.6l0,0
					C359.4,234.5,361.6,232.5,364.1,232.5z"/>
			</g>
		</g>
		<g>
			<g>
				<path class="st4" d="M401.3,251L401.3,251c2.6,0,4.6,2.1,4.6,4.6l0,0c0,2.6-2.1,4.6-4.6,4.6l0,0c-2.6,0-4.6-2.1-4.6-4.6l0,0
					C396.7,253.1,398.8,251,401.3,251z"/>
			</g>
		</g>
		<g>
			<g>
				<path class="st4" d="M419.9,251L419.9,251c2.6,0,4.6,2.1,4.6,4.6l0,0c0,2.6-2.1,4.6-4.6,4.6l0,0c-2.6,0-4.6-2.1-4.6-4.6l0,0
					C415.3,253.1,417.3,251,419.9,251z"/>
			</g>
		</g>
		<g>
			<g>
				<path class="st4" d="M438.5,251L438.5,251c2.6,0,4.6,2.1,4.6,4.6l0,0c0,2.6-2.1,4.6-4.6,4.6l0,0c-2.6,0-4.6-2.1-4.6-4.6l0,0
					C433.8,253.1,435.9,251,438.5,251z"/>
			</g>
		</g>
		<g>
			<g>
				<path class="st4" d="M382.8,251L382.8,251c2.6,0,4.6,2.1,4.6,4.6l0,0c0,2.6-2.1,4.6-4.6,4.6l0,0c-2.6,0-4.6-2.1-4.6-4.6l0,0
					C378.1,253.1,380.2,251,382.8,251z"/>
			</g>
		</g>
		<g>
			<g>
				<path class="st4" d="M364.1,251L364.1,251c2.6,0,4.6,2.1,4.6,4.6l0,0c0,2.6-2.1,4.6-4.6,4.6l0,0c-2.6,0-4.6-2.1-4.6-4.6l0,0
					C359.4,253.1,361.6,251,364.1,251z"/>
			</g>
		</g>
		<g>
			<g>
				<path class="st4" d="M401.3,269.6L401.3,269.6c2.6,0,4.6,2.1,4.6,4.6l0,0c0,2.6-2.1,4.6-4.6,4.6l0,0c-2.6,0-4.6-2.1-4.6-4.6l0,0
					C396.7,271.7,398.8,269.6,401.3,269.6z"/>
			</g>
		</g>
		<g>
			<g>
				<path class="st4" d="M419.9,269.6L419.9,269.6c2.6,0,4.6,2.1,4.6,4.6l0,0c0,2.6-2.1,4.6-4.6,4.6l0,0c-2.6,0-4.6-2.1-4.6-4.6l0,0
					C415.3,271.7,417.3,269.6,419.9,269.6z"/>
			</g>
		</g>
		<g>
			<g>
				<path class="st4" d="M438.5,269.6L438.5,269.6c2.6,0,4.6,2.1,4.6,4.6l0,0c0,2.6-2.1,4.6-4.6,4.6l0,0c-2.6,0-4.6-2.1-4.6-4.6l0,0
					C433.8,271.7,435.9,269.6,438.5,269.6z"/>
			</g>
		</g>
		<g>
			<g>
				<path class="st4" d="M382.8,269.6L382.8,269.6c2.6,0,4.6,2.1,4.6,4.6l0,0c0,2.6-2.1,4.6-4.6,4.6l0,0c-2.6,0-4.6-2.1-4.6-4.6l0,0
					C378.1,271.7,380.2,269.6,382.8,269.6z"/>
			</g>
		</g>
		<g>
			<g>
				<path class="st4" d="M364.1,269.6L364.1,269.6c2.6,0,4.6,2.1,4.6,4.6l0,0c0,2.6-2.1,4.6-4.6,4.6l0,0c-2.6,0-4.6-2.1-4.6-4.6l0,0
					C359.4,271.7,361.6,269.6,364.1,269.6z"/>
			</g>
		</g>
		<g>
			<g>
				<path class="st4" d="M341.4,232.5L341.4,232.5c2.6,0,4.6,2.1,4.6,4.6l0,0c0,2.6-2.1,4.6-4.6,4.6l0,0c-2.6,0-4.6-2.1-4.6-4.6l0,0
					C336.7,234.5,338.8,232.5,341.4,232.5z"/>
			</g>
		</g>
		<g>
			<g>
				<path class="st4" d="M341.4,251L341.4,251c2.6,0,4.6,2.1,4.6,4.6l0,0c0,2.6-2.1,4.6-4.6,4.6l0,0c-2.6,0-4.6-2.1-4.6-4.6l0,0
					C336.7,253.1,338.8,251,341.4,251z"/>
			</g>
		</g>
		<g>
			<g>
				<path class="st4" d="M341.4,269.6L341.4,269.6c2.6,0,4.6,2.1,4.6,4.6l0,0c0,2.6-2.1,4.6-4.6,4.6l0,0c-2.6,0-4.6-2.1-4.6-4.6l0,0
					C336.7,271.7,338.8,269.6,341.4,269.6z"/>
			</g>
		</g>
		<g>
			<g>
				<path class="st4" d="M319.4,232.5L319.4,232.5c2.6,0,4.6,2.1,4.6,4.6l0,0c0,2.6-2.1,4.6-4.6,4.6l0,0c-2.6,0-4.6-2.1-4.6-4.6l0,0
					C314.7,234.5,316.8,232.5,319.4,232.5z"/>
			</g>
		</g>
		<g>
			<g>
				<path class="st4" d="M319.4,251L319.4,251c2.6,0,4.6,2.1,4.6,4.6l0,0c0,2.6-2.1,4.6-4.6,4.6l0,0c-2.6,0-4.6-2.1-4.6-4.6l0,0
					C314.7,253.1,316.8,251,319.4,251z"/>
			</g>
		</g>
		<g>
			<g>
				<path class="st4" d="M319.4,269.6L319.4,269.6c2.6,0,4.6,2.1,4.6,4.6l0,0c0,2.6-2.1,4.6-4.6,4.6l0,0c-2.6,0-4.6-2.1-4.6-4.6l0,0
					C314.7,271.7,316.8,269.6,319.4,269.6z"/>
			</g>
		</g>
	</g>
	<g>
		<g>
			<path class="st4" d="M172.5,153.7H78.8c-2.6-7.3-10.5-11.1-17.8-8.5s-11.1,10.5-8.5,17.8s10.5,11.1,17.8,8.5
				c3.9-1.5,7.1-4.5,8.5-8.5h93.7c2.6,0,4.6-2.1,4.6-4.6S175,153.7,172.5,153.7z M65.7,163c-2.6,0-4.6-2.1-4.6-4.6s2.1-4.6,4.6-4.6
				s4.6,2.1,4.6,4.6S68.1,163,65.7,163z"/>
		</g>
	</g>
	<g>
		<g>
			<path class="st4" d="M172.5,251.3H78.8c-2.6-7.3-10.5-11.1-17.8-8.5s-11.1,10.5-8.5,17.8c2.6,7.3,10.5,11.1,17.8,8.5
				c3.9-1.5,7.1-4.5,8.5-8.5h93.7c2.6,0,4.6-2.1,4.6-4.6C177.1,253.6,175,251.3,172.5,251.3z M65.7,260.5c-2.6,0-4.6-2.1-4.6-4.6
				s2.1-4.6,4.6-4.6s4.6,2.1,4.6,4.6S68.1,260.5,65.7,260.5z"/>
		</g>
	</g>
</g>
<g id="bolt">
	<circle class="st5" cx="416.5" cy="254" r="92.6"/>
	<polygon class="st6" points="414.6,198.6 457.6,198.6 430.6,237.4 457.6,237.4 392.5,309.3 415.2,260.1 389.8,260.1 	"/>
</g>
</svg>
