<?xml version="1.0" encoding="utf-8"?>
<!-- Generator: Adobe Illustrator 22.0.1, SVG Export Plug-In . SVG Version: 6.00 Build 0)  -->
<svg version="1.1" id="Layer_1" xmlns="http://www.w3.org/2000/svg" xmlns:xlink="http://www.w3.org/1999/xlink" x="0px" y="0px"
	 viewBox="0 0 907.5 163.9" style="enable-background:new 0 0 907.5 163.9;" xml:space="preserve">
<style type="text/css">
	.st0{fill:#FFD16D;fill-opacity:0;}
	path{fill:#f1f6f9;}
</style>
<g>
	<rect x="3.1" y="1.1" class="st0" width="906.9" height="162"/>
</g>
<g>
	<path d="M112.2,120.9H50.6l-11.8,28.5H7.3L66.5,16.6h30.4l59.4,132.8H124L112.2,120.9z M102.6,97.6L81.5,46.7L60.4,97.6H102.6z"/>
	<path d="M170.1,16.6h60.3c14.4,0,27.2,2.8,38.2,8.3c11.1,5.5,19.7,13.3,25.8,23.2c6.1,10,9.2,21.6,9.2,34.9
		c0,13.3-3.1,24.9-9.2,34.9c-6.1,10-14.7,17.7-25.8,23.2c-11.1,5.5-23.8,8.3-38.2,8.3h-60.3V16.6z M228.9,124.2
		c13.3,0,23.9-3.7,31.8-11.1c7.9-7.4,11.9-17.4,11.9-30.1c0-12.6-4-22.7-11.9-30.1c-7.9-7.4-18.5-11.1-31.8-11.1h-28.1v82.4H228.9z"
		/>
	<path d="M326.9,16.6h60.3c14.4,0,27.2,2.8,38.2,8.3c11.1,5.5,19.7,13.3,25.8,23.2c6.1,10,9.2,21.6,9.2,34.9
		c0,13.3-3.1,24.9-9.2,34.9c-6.1,10-14.7,17.7-25.8,23.2c-11.1,5.5-23.8,8.3-38.2,8.3h-60.3V16.6z M385.7,124.2
		c13.3,0,23.9-3.7,31.8-11.1c7.9-7.4,11.9-17.4,11.9-30.1c0-12.6-4-22.7-11.9-30.1c-7.9-7.4-18.5-11.1-31.8-11.1h-28.1v82.4H385.7z"
		/>
	<path d="M510.7,142.8c-11.1-5.9-19.7-14.1-26-24.6S475.3,96,475.3,83c0-13,3.1-24.8,9.4-35.2s14.9-18.6,26-24.6
		c11.1-5.9,23.5-8.9,37.3-8.9c13.8,0,26.2,3,37.2,8.9c11,5.9,19.7,14.1,26,24.6c6.3,10.4,9.5,22.2,9.5,35.2c0,13-3.2,24.8-9.5,35.2
		c-6.3,10.4-15,18.6-26,24.6c-11,5.9-23.4,8.9-37.2,8.9C534.2,151.7,521.7,148.7,510.7,142.8z M569.2,120.1
		c6.3-3.6,11.3-8.6,14.9-15.1c3.6-6.5,5.4-13.8,5.4-22c0-8.2-1.8-15.6-5.4-22c-3.6-6.5-8.6-11.5-14.9-15.1
		c-6.3-3.6-13.4-5.4-21.3-5.4c-7.8,0-14.9,1.8-21.3,5.4c-6.3,3.6-11.3,8.6-14.9,15.1c-3.6,6.5-5.4,13.8-5.4,22
		c0,8.2,1.8,15.6,5.4,22c3.6,6.5,8.6,11.5,14.9,15.1c6.3,3.6,13.4,5.4,21.3,5.4C555.8,125.5,562.9,123.7,569.2,120.1z"/>
	<path d="M765.6,16.6v132.8h-25.2l-66.2-80.7v80.7h-30.4V16.6h25.4l66,80.7V16.6H765.6z"/>
	<path d="M810.3,147.4c-9.8-2.8-17.7-6.5-23.6-11.1l10.4-23.2c5.7,4.2,12.5,7.5,20.3,10.1c7.8,2.5,15.7,3.8,23.5,3.8
		c8.7,0,15.2-1.3,19.4-3.9c4.2-2.6,6.3-6,6.3-10.3c0-3.2-1.2-5.8-3.7-7.9c-2.5-2.1-5.6-3.8-9.5-5c-3.9-1.3-9.1-2.7-15.7-4.2
		c-10.1-2.4-18.4-4.8-24.9-7.2c-6.5-2.4-12-6.3-16.6-11.6c-4.6-5.3-6.9-12.4-6.9-21.3c0-7.7,2.1-14.7,6.3-21
		c4.2-6.3,10.5-11.2,18.9-14.9c8.4-3.7,18.7-5.5,30.8-5.5c8.5,0,16.8,1,24.9,3c8.1,2,15.2,4.9,21.3,8.7l-9.5,23.3
		c-12.3-7-24.5-10.4-36.8-10.4c-8.6,0-15,1.4-19.1,4.2c-4.1,2.8-6.2,6.5-6.2,11s2.4,7.9,7.1,10.2c4.7,2.2,12,4.4,21.7,6.5
		c10.1,2.4,18.4,4.8,24.9,7.2c6.5,2.4,12,6.2,16.6,11.4c4.6,5.2,6.9,12.2,6.9,21.1c0,7.6-2.1,14.5-6.4,20.8
		c-4.2,6.3-10.6,11.2-19.1,14.9c-8.5,3.7-18.8,5.5-30.9,5.5C830.3,151.7,820.1,150.2,810.3,147.4z"/>
</g>
</svg>
