<?xml version="1.0" encoding="utf-8"?>
<!-- Generator: Adobe Illustrator 22.0.1, SVG Export Plug-In . SVG Version: 6.00 Build 0)  -->
<svg version="1.1" id="Layer_1" xmlns="http://www.w3.org/2000/svg" xmlns:xlink="http://www.w3.org/1999/xlink" x="0px" y="0px"
	 viewBox="0 0 949 149.7" style="enable-background:new 0 0 949 149.7;" xml:space="preserve">
<style type="text/css">
	.st0{fill:#FFD16D;fill-opacity:0;}
	.st1{enable-background:new    ;}
	path{fill:#f1f6f9;}
</style>
<title>Demo</title>
<rect x="5" y="2" class="st0" width="942" height="148"/>
<g class="st1">
	<path d="M119.2,84.8c4.2,5.5,6.4,12.4,6.4,20.5c0,11.5-4.5,20.3-13.4,26.5c-8.9,6.2-21.9,9.3-39,9.3H5.5V10.1h64
		c16,0,28.2,3.1,36.7,9.2c8.5,6.1,12.8,14.4,12.8,24.9c0,6.4-1.5,12-4.6,17c-3.1,5-7.3,8.9-12.8,11.8
		C109.1,75.3,115,79.3,119.2,84.8z M35.6,32.9v30.9h30.1c7.5,0,13.2-1.3,17-3.9c3.9-2.6,5.8-6.5,5.8-11.6c0-5.1-1.9-8.9-5.8-11.5
		c-3.9-2.6-9.5-3.8-17-3.8H35.6z M89,114.3c4-2.6,6.1-6.7,6.1-12.2c0-10.8-8-16.3-24.1-16.3H35.6v32.4H71
		C78.9,118.2,85,116.9,89,114.3z"/>
	<path d="M249.9,116.7V141H148.6V10.1h98.9v24.3h-68.8v28.4h60.8v23.6h-60.8v30.3H249.9z"/>
	<path d="M394.1,10.1V141h-24.9L304,61.5V141h-29.9V10.1h25.1l65.1,79.5V10.1H394.1z"/>
	<path d="M526.5,116.7V141H425.1V10.1h98.9v24.3h-68.8v28.4H516v23.6h-60.8v30.3H526.5z"/>
	<path d="M580.9,34.4V69h60.6v24.3h-60.6V141h-30.3V10.1h98.9v24.3H580.9z"/>
	<path d="M670.1,10.1h30.3V141h-30.3V10.1z"/>
	<path d="M758.6,34.8h-41.9V10.1h114.1v24.7h-41.9V141h-30.3V34.8z"/>
	<path d="M859.1,139c-9.7-2.8-17.4-6.5-23.3-10.9l10.3-22.8c5.6,4.1,12.3,7.4,20,9.9c7.7,2.5,15.5,3.7,23.2,3.7
		c8.6,0,15-1.3,19.1-3.8c4.1-2.6,6.2-6,6.2-10.2c0-3.1-1.2-5.7-3.6-7.8s-5.5-3.7-9.3-5c-3.8-1.2-8.9-2.6-15.4-4.1
		c-10-2.4-18.1-4.7-24.5-7.1c-6.4-2.4-11.8-6.2-16.4-11.4c-4.6-5.2-6.8-12.2-6.8-20.9c0-7.6,2.1-14.5,6.2-20.7
		c4.1-6.2,10.3-11.1,18.6-14.7c8.3-3.6,18.4-5.4,30.4-5.4c8.4,0,16.5,1,24.5,3c8,2,15,4.9,20.9,8.6l-9.3,23
		c-12.1-6.9-24.2-10.3-36.3-10.3c-8.5,0-14.7,1.4-18.8,4.1c-4.1,2.7-6.1,6.4-6.1,10.8s2.3,7.8,7,10c4.7,2.2,11.8,4.3,21.4,6.5
		c10,2.4,18.1,4.7,24.5,7.1c6.4,2.4,11.8,6.1,16.4,11.2c4.5,5.1,6.8,12,6.8,20.8c0,7.5-2.1,14.3-6.3,20.5
		c-4.2,6.2-10.4,11.1-18.8,14.7c-8.4,3.6-18.5,5.4-30.5,5.4C878.7,143.2,868.7,141.8,859.1,139z"/>
</g>
</svg>
