<?xml version="1.0" encoding="utf-8"?>
<!-- Generator: Adobe Illustrator 22.0.1, SVG Export Plug-In . SVG Version: 6.00 Build 0)  -->
<svg version="1.1" id="Layer_1" xmlns="http://www.w3.org/2000/svg" xmlns:xlink="http://www.w3.org/1999/xlink" x="0px" y="0px"
	 viewBox="0 0 739.5 163.9" style="enable-background:new 0 0 739.5 163.9;" xml:space="preserve">
<style type="text/css">
	.st0{fill:#FFD16D;fill-opacity:0;}
	path{fill:#5a9ae6;}
</style>
<g>
	<rect x="1.1" y="1.1" class="st0" width="746.9" height="162"/>
</g>
<g>
	<path d="M132.2,94.1c4.2,5.6,6.4,12.4,6.4,20.5c0,11.5-4.5,20.3-13.4,26.5s-21.9,9.3-39,9.3H18.5v-131h64c16,0,28.2,3.1,36.8,9.2
		c8.5,6.1,12.8,14.4,12.8,24.9c0,6.4-1.5,12-4.6,17c-3.1,5-7.3,8.9-12.8,11.8C122.1,84.5,128,88.5,132.2,94.1z M48.6,42.1V73h30.1
		c7.5,0,13.2-1.3,17-3.9c3.9-2.6,5.8-6.5,5.8-11.6s-1.9-9-5.8-11.5c-3.9-2.6-9.5-3.8-17-3.8L48.6,42.1L48.6,42.1z M102,123.5
		c4.1-2.6,6.1-6.7,6.1-12.2c0-10.9-8-16.3-24.1-16.3H48.6v32.4H84C91.9,127.5,98,126.2,102,123.5z"/>
	<path d="M245.1,150.3l-25.3-36.5h-1.5h-26.4v36.5h-30.3v-131h56.7c11.6,0,21.7,1.9,30.2,5.8s15.1,9.4,19.7,16.5s6.9,15.5,6.9,25.3
		c0,9.7-2.3,18.1-7,25.2c-4.7,7-11.3,12.4-19.9,16.2l29.4,42.1L245.1,150.3L245.1,150.3z M237.4,49.9c-4.7-3.9-11.7-5.9-20.8-5.9
		h-24.7v45.7h24.7c9.1,0,16-2,20.8-6c4.7-4,7.1-9.6,7.1-16.8C244.5,59.5,242.2,53.8,237.4,49.9z"/>
	<path d="M385.4,122.2h-60.8L313,150.3h-31l58.4-131h29.9l58.6,131h-31.8L385.4,122.2z M375.9,99.2L355.1,49l-20.8,50.2H375.9z"/>
	<path d="M562.7,19.3v131h-24.9l-65.3-79.5v79.5h-29.9v-131h25.1l65.1,79.5V19.3H562.7z"/>
	<path d="M593.7,19.3h59.5c14.2,0,26.8,2.7,37.7,8.1s19.4,13.1,25.5,22.9c6,9.9,9.1,21.3,9.1,34.4s-3,24.6-9.1,34.4
		c-6.1,9.9-14.5,17.5-25.5,22.9c-10.9,5.4-23.5,8.1-37.7,8.1h-59.5V19.3z M651.7,125.4c13.1,0,23.5-3.6,31.3-10.9
		c7.8-7.3,11.7-17.2,11.7-29.7s-3.9-22.4-11.7-29.7c-7.8-7.3-18.2-10.9-31.3-10.9H624v81.2H651.7z"/>
</g>
</svg>
