<?xml version="1.0" encoding="utf-8"?>
<!-- Generator: Adobe Illustrator 22.0.1, SVG Export Plug-In . SVG Version: 6.00 Build 0)  -->
<svg version="1.1" id="Layer_1" xmlns="http://www.w3.org/2000/svg" xmlns:xlink="http://www.w3.org/1999/xlink" x="0px" y="0px"
	 viewBox="0 0 839 149.7" style="enable-background:new 0 0 839 149.7;" xml:space="preserve">
<style type="text/css">
	.st0{fill:#FFD16D;fill-opacity:0;}
	.st1{enable-background:new    ;}
	path{fill:#e6f0f4;}
</style>
<title>Demo</title>
<rect y="1" class="st0" width="840" height="148"/>
<g class="st1">
	<path d="M38,134.5c-10.8-5.8-19.3-13.8-25.4-24.1c-6.2-10.3-9.3-21.9-9.3-34.9c0-13,3.1-24.6,9.3-34.9C18.7,30.4,27.2,22.3,38,16.6
		c10.8-5.8,22.9-8.7,36.4-8.7c11.3,0,21.6,2,30.8,6c9.2,4,16.9,9.7,23.1,17.2l-19.4,18c-8.9-10.2-19.8-15.3-32.9-15.3
		c-8.1,0-15.3,1.8-21.7,5.3c-6.4,3.6-11.3,8.5-14.9,14.9C35.7,60.2,34,67.4,34,75.5c0,8.1,1.8,15.3,5.3,21.7
		c3.6,6.4,8.5,11.3,14.9,14.9c6.4,3.6,13.6,5.3,21.7,5.3c13.1,0,24.1-5.2,32.9-15.5l19.4,18c-6.2,7.6-14,13.4-23.2,17.4
		c-9.2,4-19.5,6-30.9,6C60.8,143.2,48.8,140.3,38,134.5z"/>
	<path d="M268.6,10.1V141h-30.3V87.3h-59.5V141h-30.3V10.1h30.3v51.6h59.5V10.1H268.6z"/>
	<path d="M326.3,134.5c-10.9-5.9-19.4-13.9-25.6-24.2c-6.2-10.3-9.3-21.8-9.3-34.7c0-12.8,3.1-24.4,9.3-34.7
		c6.2-10.3,14.7-18.4,25.6-24.2c10.9-5.9,23.2-8.8,36.7-8.8c13.6,0,25.8,2.9,36.7,8.8c10.8,5.9,19.4,13.9,25.6,24.2
		c6.2,10.3,9.4,21.8,9.4,34.7c0,12.8-3.1,24.4-9.4,34.7c-6.2,10.3-14.8,18.4-25.6,24.2c-10.8,5.9-23.1,8.8-36.7,8.8
		C349.5,143.2,337.2,140.3,326.3,134.5z M384,112.1c6.2-3.6,11.1-8.5,14.7-14.9c3.6-6.4,5.3-13.6,5.3-21.7c0-8.1-1.8-15.3-5.3-21.7
		c-3.6-6.4-8.4-11.3-14.7-14.9c-6.2-3.6-13.2-5.3-20.9-5.3c-7.7,0-14.7,1.8-20.9,5.3c-6.2,3.6-11.1,8.5-14.7,14.9
		c-3.6,6.4-5.3,13.6-5.3,21.7c0,8.1,1.8,15.3,5.3,21.7c3.6,6.4,8.4,11.3,14.7,14.9c6.2,3.6,13.2,5.3,20.9,5.3
		C370.8,117.4,377.8,115.7,384,112.1z"/>
	<path d="M484.2,134.5c-10.9-5.9-19.4-13.9-25.6-24.2s-9.3-21.8-9.3-34.7c0-12.8,3.1-24.4,9.3-34.7s14.7-18.4,25.6-24.2
		c10.9-5.9,23.2-8.8,36.7-8.8c13.6,0,25.8,2.9,36.7,8.8c10.8,5.9,19.4,13.9,25.6,24.2c6.2,10.3,9.4,21.8,9.4,34.7
		c0,12.8-3.1,24.4-9.4,34.7c-6.2,10.3-14.8,18.4-25.6,24.2c-10.8,5.9-23.1,8.8-36.7,8.8C507.3,143.2,495.1,140.3,484.2,134.5z
		 M541.8,112.1c6.2-3.6,11.1-8.5,14.7-14.9c3.6-6.4,5.3-13.6,5.3-21.7c0-8.1-1.8-15.3-5.3-21.7c-3.6-6.4-8.4-11.3-14.7-14.9
		c-6.2-3.6-13.2-5.3-20.9-5.3c-7.7,0-14.7,1.8-20.9,5.3c-6.2,3.6-11.1,8.5-14.7,14.9c-3.6,6.4-5.3,13.6-5.3,21.7
		c0,8.1,1.8,15.3,5.3,21.7c3.6,6.4,8.4,11.3,14.7,14.9c6.2,3.6,13.2,5.3,20.9,5.3C528.6,117.4,535.6,115.7,541.8,112.1z"/>
	<path d="M628.3,139c-9.7-2.8-17.4-6.5-23.3-10.9l10.3-22.8c5.6,4.1,12.3,7.4,20,9.9c7.7,2.5,15.5,3.7,23.2,3.7
		c8.6,0,15-1.3,19.1-3.8c4.1-2.6,6.2-6,6.2-10.2c0-3.1-1.2-5.7-3.6-7.8s-5.5-3.7-9.3-5c-3.8-1.2-8.9-2.6-15.4-4.1
		c-10-2.4-18.1-4.7-24.5-7.1c-6.4-2.4-11.8-6.2-16.4-11.4c-4.6-5.2-6.8-12.2-6.8-20.9c0-7.6,2.1-14.5,6.2-20.7
		c4.1-6.2,10.3-11.1,18.6-14.7c8.3-3.6,18.4-5.4,30.4-5.4c8.4,0,16.5,1,24.5,3c8,2,15,4.9,20.9,8.6l-9.3,23
		c-12.1-6.9-24.2-10.3-36.3-10.3c-8.5,0-14.7,1.4-18.8,4.1c-4.1,2.7-6.1,6.4-6.1,10.8s2.3,7.8,7,10c4.7,2.2,11.8,4.3,21.4,6.5
		c10,2.4,18.1,4.7,24.5,7.1c6.4,2.4,11.8,6.1,16.4,11.2c4.5,5.1,6.8,12,6.8,20.8c0,7.5-2.1,14.3-6.3,20.5
		c-4.2,6.2-10.4,11.1-18.8,14.7c-8.4,3.6-18.5,5.4-30.5,5.4C648,143.2,638,141.8,628.3,139z"/>
	<path d="M836,116.7V141H734.6V10.1h98.9v24.3h-68.8v28.4h60.8v23.6h-60.8v30.3H836z"/>
</g>
</svg>
