<?xml version="1.0" encoding="utf-8"?>
<!-- Generator: Adobe Illustrator 22.0.1, SVG Export Plug-In . SVG Version: 6.00 Build 0)  -->
<svg version="1.1" id="Layer_1" xmlns="http://www.w3.org/2000/svg" xmlns:xlink="http://www.w3.org/1999/xlink" x="0px" y="0px"
	 viewBox="0 0 543.5 163.9" style="enable-background:new 0 0 543.5 163.9;" xml:space="preserve">
<style type="text/css">
	.st0{fill:#FFD16D;fill-opacity:0;}
	path{fill:#5a9ae6;}
</style>
<g>
	<rect x="1.1" y="1.1" class="st0" width="538.9" height="162"/>
</g>
<g>
	<path d="M141.5,16.8v131.5h-30.4V94.4H51.3v53.9H20.9V16.8h30.4v51.8h59.7V16.8H141.5z"/>
	<path d="M274.5,123.8v24.4H172.7V16.8H272v24.4h-69.1v28.5h61v23.7h-61v30.4H274.5z"/>
	<path d="M298.7,16.8h30.4v106.7H395v24.8h-96.3V16.8z"/>
	<path d="M499.4,22.6c8.6,3.9,15.2,9.4,19.8,16.5c4.6,7.1,6.9,15.6,6.9,25.4c0,9.6-2.3,18.1-6.9,25.3c-4.6,7.2-11.2,12.7-19.8,16.5
		c-8.6,3.8-18.7,5.7-30.3,5.7h-26.5v36.2h-30.4V16.8H469C480.7,16.8,490.8,18.7,499.4,22.6z M488.2,81.3c4.8-3.9,7.1-9.5,7.1-16.8
		c0-7.4-2.4-13.1-7.1-17c-4.8-3.9-11.7-5.9-20.8-5.9h-24.8v45.6h24.8C476.5,87.2,483.4,85.3,488.2,81.3z"/>
</g>
</svg>
