<?xml version="1.0" encoding="utf-8"?>
<!-- Generator: Adobe Illustrator 22.0.1, SVG Export Plug-In . SVG Version: 6.00 Build 0)  -->
<svg version="1.1" id="Layer_1" xmlns="http://www.w3.org/2000/svg" xmlns:xlink="http://www.w3.org/1999/xlink" x="0px" y="0px"
	 viewBox="0 0 977 149.7" style="enable-background:new 0 0 977 149.7;" xml:space="preserve">
<style type="text/css">
	.st0{fill:#FFD16D;fill-opacity:0;}
	.st1{enable-background:new    ;}
	.st2{fill:#F1F6F9;}
</style>
<title>Security Light</title>
<rect y="1" class="st0" width="977" height="148"/>
<g class="st1">
	<path class="st2" d="M30.5,138.9c-9.7-2.9-17.4-6.7-23.3-11.2l10.3-23.4c5.6,4.2,12.3,7.6,20,10.2c7.7,2.6,15.5,3.8,23.2,3.8
		c8.6,0,15-1.3,19.1-3.9c4.1-2.7,6.2-6.2,6.2-10.5c0-3.2-1.2-5.9-3.6-8C80,93.6,76.9,92,73,90.7c-3.8-1.2-8.9-2.7-15.4-4.2
		c-10-2.5-18.1-4.8-24.5-7.3c-6.4-2.5-11.8-6.4-16.4-11.7c-4.6-5.3-6.8-12.5-6.8-21.5c0-7.8,2-14.9,6.1-21.2
		c4.1-6.4,10.3-11.4,18.6-15.1S53.1,4.1,65,4.1c8.4,0,16.5,1,24.5,3.1s15,5,20.9,8.8L101,39.7c-12-7.1-24.1-10.6-36.2-10.6
		c-8.5,0-14.7,1.4-18.8,4.2c-4,2.8-6,6.5-6,11.1s2.3,8,7,10.3c4.7,2.3,11.8,4.4,21.4,6.7c10,2.5,18.1,4.8,24.5,7.3
		c6.4,2.5,11.8,6.3,16.4,11.5c4.5,5.2,6.8,12.3,6.8,21.4c0,7.7-2.1,14.7-6.3,21.1C105.6,129,99.4,134,91,137.7
		c-8.4,3.7-18.5,5.6-30.5,5.6C50.2,143.2,40.2,141.8,30.5,138.9z"/>
	<path class="st2" d="M238.2,116v25H136.8V6.4h98.9v25h-68.8v29.2h60.8v24.3h-60.8V116H238.2z"/>
	<path class="st2" d="M288.4,134.3c-10.8-6-19.3-14.2-25.4-24.8c-6.2-10.6-9.3-22.5-9.3-35.9s3.1-25.3,9.3-35.9s14.6-18.8,25.4-24.8
		S311.3,4,324.8,4c11.3,0,21.6,2.1,30.8,6.2c9.2,4.1,16.9,10,23.1,17.7l-19.4,18.5c-8.9-10.5-19.8-15.7-32.9-15.7
		c-8.1,0-15.3,1.9-21.7,5.4c-6.4,3.7-11.3,8.7-14.9,15.3s-5.3,14-5.3,22.3s1.8,15.7,5.3,22.3c3.6,6.6,8.5,11.6,14.9,15.3
		s13.6,5.4,21.7,5.4c13.1,0,24.1-5.3,32.9-15.9l19.4,18.5c-6.2,7.8-14,13.8-23.2,17.9c-9.2,4.1-19.5,6.2-30.9,6.2
		C311.2,143.2,299.2,140.2,288.4,134.3z"/>
	<path class="st2" d="M412.4,127.3c-10.4-10.6-15.6-25.8-15.6-45.5V6.4H427v74.2c0,24.1,9.7,36.2,29.2,36.2c9.5,0,16.7-2.9,21.7-8.7
		s7.5-15,7.5-27.3V6.4h29.9v75.4c0,19.7-5.2,35-15.6,45.5c-10.4,10.6-25,15.9-43.7,15.9S422.8,138,412.4,127.3z"/>
	<path class="st2" d="M628.6,140.9l-25.2-37.5h-1.5h-26.4v37.5h-30.3V6.4h56.7c11.6,0,21.7,2,30.2,6s15.1,9.6,19.7,17
		c4.6,7.3,6.9,15.9,6.9,25.9s-2.3,18.6-7,25.9c-4.7,7.2-11.3,12.7-19.9,16.7l29.4,43.3h-32.6V140.9z M621,37.8
		c-4.7-4-11.7-6.1-20.8-6.1h-24.7v46.9h24.7c9.1,0,16-2.1,20.8-6.2c4.7-4.1,7.1-9.9,7.1-17.3C628.1,47.6,625.7,41.8,621,37.8z"/>
	<path class="st2" d="M682.7,6.4H713v134.6h-30.3V6.4z"/>
	<path class="st2" d="M771.1,31.8h-41.9V6.4h114.1v25.4h-41.9v109.2h-30.3L771.1,31.8L771.1,31.8z"/>
	<path class="st2" d="M920,93.2v47.7h-30.3v-48L839,6.4h32.2l35,59.8l35-59.8h29.7L920,93.2z"/>
</g>
</svg>
