<?xml version="1.0" encoding="utf-8"?>
<!-- Generator: Adobe Illustrator 22.0.1, SVG Export Plug-In . SVG Version: 6.00 Build 0)  -->
<svg version="1.1" id="Layer_1" xmlns="http://www.w3.org/2000/svg" xmlns:xlink="http://www.w3.org/1999/xlink" x="0px" y="0px"
	 viewBox="0 0 966 149.7" style="enable-background:new 0 0 966 149.7;" xml:space="preserve">
<style type="text/css">
	.st0{fill:#FFD16D;fill-opacity:0;}
	.st1{enable-background:new    ;}
	path{fill:#f1f6f9;}
</style>
<title>Demo</title>
<rect y="1" class="st0" width="965" height="148"/>
<g class="st1">
	<path d="M32.5,140c-9.7-2.8-17.4-6.5-23.3-10.9l10.3-22.8c5.6,4.1,12.3,7.4,20,9.9c7.7,2.5,15.5,3.7,23.2,3.7
		c8.6,0,15-1.3,19.1-3.8c4.1-2.6,6.2-6,6.2-10.2c0-3.1-1.2-5.7-3.6-7.8c-2.4-2.1-5.5-3.7-9.4-5c-3.8-1.2-8.9-2.6-15.4-4.1
		c-10-2.4-18.1-4.7-24.5-7.1c-6.4-2.4-11.8-6.2-16.4-11.4c-4.6-5.2-6.8-12.2-6.8-20.9c0-7.6,2.1-14.5,6.2-20.7
		c4.1-6.2,10.3-11.1,18.6-14.7c8.3-3.6,18.4-5.4,30.4-5.4c8.4,0,16.5,1,24.5,3c8,2,15,4.9,20.9,8.6l-9.4,23
		C91,36.6,78.9,33.2,66.8,33.2c-8.5,0-14.7,1.4-18.8,4.1C44,40,42,43.6,42,48.1s2.3,7.8,7,10c4.7,2.2,11.8,4.3,21.4,6.5
		c10,2.4,18.1,4.7,24.5,7.1c6.4,2.4,11.8,6.1,16.4,11.2c4.5,5.1,6.8,12,6.8,20.8c0,7.5-2.1,14.3-6.3,20.5
		c-4.2,6.2-10.4,11.1-18.8,14.7c-8.4,3.6-18.5,5.4-30.5,5.4C52.2,144.2,42.2,142.8,32.5,140z"/>
	<path d="M240.2,117.7V142H138.8V11.1h98.9v24.3h-68.8v28.4h60.8v23.6h-60.8v30.3H240.2z"/>
	<path d="M347.7,142l-25.2-36.5H321h-26.4V142h-30.3V11.1H321c11.6,0,21.7,1.9,30.2,5.8c8.5,3.9,15.1,9.3,19.7,16.5
		c4.6,7.1,6.9,15.5,6.9,25.2c0,9.7-2.3,18.1-7,25.2c-4.7,7-11.3,12.4-19.9,16.2l29.4,42.1H347.7z M340,41.7
		c-4.7-3.9-11.7-5.9-20.8-5.9h-24.7v45.6h24.7c9.1,0,16-2,20.8-6c4.7-4,7.1-9.6,7.1-16.8C347.1,51.2,344.8,45.6,340,41.7z"/>
	<path d="M527.6,11.1L470.9,142H441L384.5,11.1h32.7l39.8,93.5l40.4-93.5H527.6z"/>
	<path d="M538.4,11.1h30.3V142h-30.3V11.1z"/>
	<path d="M626.2,135.5c-10.8-5.8-19.3-13.8-25.4-24.1s-9.3-21.9-9.3-34.9c0-13,3.1-24.6,9.3-34.9s14.6-18.3,25.4-24.1
		c10.8-5.8,22.9-8.7,36.4-8.7c11.3,0,21.6,2,30.8,6c9.2,4,16.9,9.7,23.1,17.2L697,50c-8.9-10.2-19.8-15.3-32.9-15.3
		c-8.1,0-15.3,1.8-21.7,5.3c-6.4,3.6-11.3,8.5-14.9,14.9c-3.6,6.4-5.3,13.6-5.3,21.7c0,8.1,1.8,15.3,5.3,21.7
		c3.6,6.4,8.5,11.3,14.9,14.9c6.4,3.6,13.6,5.3,21.7,5.3c13.1,0,24.1-5.2,32.9-15.5l19.4,18c-6.2,7.6-14,13.4-23.2,17.4
		c-9.2,4-19.5,6-30.9,6C649.1,144.2,637,141.3,626.2,135.5z"/>
	<path d="M838.2,117.7V142H736.8V11.1h98.9v24.3h-68.8v28.4h60.8v23.6h-60.8v30.3H838.2z"/>
	<path d="M875.3,140c-9.7-2.8-17.4-6.5-23.3-10.9l10.3-22.8c5.6,4.1,12.3,7.4,20,9.9c7.7,2.5,15.5,3.7,23.2,3.7
		c8.6,0,15-1.3,19.1-3.8c4.1-2.6,6.2-6,6.2-10.2c0-3.1-1.2-5.7-3.6-7.8s-5.5-3.7-9.3-5c-3.8-1.2-8.9-2.6-15.4-4.1
		c-10-2.4-18.1-4.7-24.5-7.1c-6.4-2.4-11.8-6.2-16.4-11.4c-4.6-5.2-6.8-12.2-6.8-20.9c0-7.6,2.1-14.5,6.2-20.7
		c4.1-6.2,10.3-11.1,18.6-14.7c8.3-3.6,18.4-5.4,30.4-5.4c8.4,0,16.5,1,24.5,3c8,2,15,4.9,20.9,8.6l-9.3,23
		c-12.1-6.9-24.2-10.3-36.3-10.3c-8.5,0-14.7,1.4-18.8,4.1c-4.1,2.7-6.1,6.4-6.1,10.8s2.3,7.8,7,10c4.7,2.2,11.8,4.3,21.4,6.5
		c10,2.4,18.1,4.7,24.5,7.1c6.4,2.4,11.8,6.1,16.4,11.2c4.5,5.1,6.8,12,6.8,20.8c0,7.5-2.1,14.3-6.3,20.5
		c-4.2,6.2-10.4,11.1-18.8,14.7c-8.4,3.6-18.5,5.4-30.5,5.4C895,144.2,885,142.8,875.3,140z"/>
</g>
</svg>
