<?xml version="1.0" encoding="utf-8"?>
<!-- Generator: Adobe Illustrator 24.0.1, SVG Export Plug-In . SVG Version: 6.00 Build 0)  -->
<svg version="1.1" id="Layer_1" xmlns="http://www.w3.org/2000/svg" xmlns:xlink="http://www.w3.org/1999/xlink" x="0px" y="0px"
	 viewBox="0 0 675.3 201.2" style="enable-background:new 0 0 675.3 201.2;" xml:space="preserve">
<style type="text/css">
	.st0{fill:#EC6E62;}
	.st1{fill:#434343;}
	.st2{enable-background:new    ;}
	.st3{fill:#FFFFFF;}
</style>
<path class="st0" d="M653.8,200.7H187.2c-5.5,0-10.8-2.2-14.7-5.9l-89.9-86.1c-4.8-4.5-4.8-12,0-16.6L172.5,6
	c3.9-3.8,9.2-5.9,14.7-5.9h466.6c11.7,0,21.3,9.5,21.3,21.3v158C675.1,191.1,665.5,200.7,653.8,200.7z M148.9,74.1
	c-14.5,0-26.2,11.7-26.2,26.2s11.7,26.2,26.2,26.2s26.2-11.7,26.2-26.2S163.4,74.1,148.9,74.1z"/>
<path class="st1" d="M136.6,77.1c2.8,4.6,1.6,14.5-0.5,21.3c-2.6,8.7-9.6,24.6-26.8,32.7c-11.5,5.4-26.3,8.2-40.9,8.2
	c-11.9,0-23.5-1.8-33.1-5.6C11,124.3-4.6,102-0.4,82.9C4.9,59.6,30.7,42.6,64,40.7c28-1.6,50.8,12.7,54.7,16.8l-7.1,6.8
	c-2.4-2.3-21.9-15-47.1-13.6c-28.8,1.7-51,15.5-55.2,34.4c-3.1,14.1,10.1,31.8,29.5,39.3c19.1,7.4,47.6,6.4,66.2-2.4
	c21.1-9.9,25.3-34.7,23.8-38.7c0.8-1,1.9-2.1,3.3-3.3C133.8,78.8,135.3,77.8,136.6,77.1z"/>
<g class="st2">
	<path class="st3" d="M610.1,80l-10,13.2v0.2l15.9-2.1v7.2l-15.9-1.9v0.2l10.1,12.6l-6.6,3.8l-6.3-14.7h-0.2l-6.8,14.8l-6-3.8
		l10-12.8v-0.2l-15.6,2v-7.2l15.5,2v-0.2l-9.9-12.9l6.4-3.7l6.5,14.6h0.2l6.4-14.7L610.1,80z"/>
</g>
<g>
	<path class="st3" d="M218.8,85.1c-1.6-1.5-2.3-3.5-2.3-5.8c0-2.4,0.8-4.3,2.3-5.8s3.5-2.2,5.7-2.2c2.3,0,4.2,0.7,5.7,2.2
		s2.3,3.4,2.3,5.8c0,2.3-0.8,4.3-2.3,5.8c-1.6,1.6-3.5,2.3-5.7,2.3C222.3,87.5,220.3,86.7,218.8,85.1z"/>
	<path class="st3" d="M252.4,83.9c-4.8-2.6-8.6-6.1-11.3-10.7s-4.1-9.7-4.1-15.5s1.4-10.9,4.1-15.5c2.7-4.6,6.5-8.1,11.3-10.7
		c4.8-2.6,10.2-3.9,16.2-3.9c5,0,9.6,0.9,13.7,2.7s7.5,4.3,10.3,7.6l-8.6,8c-3.9-4.5-8.8-6.8-14.6-6.8c-3.6,0-6.8,0.8-9.6,2.4
		s-5,3.8-6.6,6.6s-2.4,6-2.4,9.6s0.8,6.8,2.4,9.6s3.8,5,6.6,6.6s6,2.4,9.6,2.4c5.8,0,10.7-2.3,14.6-6.9l8.6,8
		c-2.8,3.4-6.2,6-10.3,7.7c-4.1,1.8-8.7,2.7-13.7,2.7C262.5,87.8,257.2,86.5,252.4,83.9z"/>
	<path class="st3" d="M312.1,83.9c-4.8-2.6-8.6-6.2-11.4-10.8s-4.1-9.7-4.1-15.4s1.4-10.8,4.1-15.4s6.5-8.2,11.4-10.8
		c4.8-2.6,10.3-3.9,16.3-3.9s11.5,1.3,16.3,3.9s8.6,6.2,11.4,10.8s4.2,9.7,4.2,15.4s-1.4,10.8-4.2,15.4c-2.8,4.6-6.6,8.2-11.4,10.8
		c-4.8,2.6-10.2,3.9-16.3,3.9C322.4,87.8,317,86.5,312.1,83.9z M337.7,74c2.8-1.6,4.9-3.8,6.5-6.6s2.4-6,2.4-9.6s-0.8-6.8-2.4-9.6
		s-3.8-5-6.5-6.6c-2.8-1.6-5.9-2.4-9.3-2.4s-6.5,0.8-9.3,2.4c-2.8,1.6-4.9,3.8-6.5,6.6s-2.4,6-2.4,9.6s0.8,6.8,2.4,9.6
		s3.8,5,6.5,6.6c2.8,1.6,5.9,2.4,9.3,2.4C331.9,76.3,335,75.5,337.7,74z"/>
	<path class="st3" d="M423.3,86.8l-0.1-34.9l-17.1,28.7H400l-17-28v34.1h-12.6v-58h11.1l21.8,36.1l21.4-36.1h11l0.2,58.1H423.3z"/>
</g>
<g>
	<path class="st3" d="M218.8,166.5c-1.6-1.5-2.3-3.5-2.3-5.8c0-2.4,0.8-4.3,2.3-5.8s3.5-2.2,5.7-2.2c2.3,0,4.2,0.7,5.7,2.2
		s2.3,3.4,2.3,5.8c0,2.3-0.8,4.3-2.3,5.8c-1.6,1.6-3.5,2.3-5.7,2.3C222.3,168.9,220.3,168.1,218.8,166.5z"/>
	<path class="st3" d="M252.5,165.3c-4.8-2.6-8.6-6.2-11.4-10.8s-4.1-9.7-4.1-15.4s1.4-10.8,4.1-15.4c2.7-4.6,6.5-8.2,11.4-10.8
		c4.8-2.6,10.3-3.9,16.3-3.9s11.5,1.3,16.3,3.9s8.6,6.2,11.4,10.8c2.8,4.6,4.2,9.7,4.2,15.4s-1.4,10.8-4.2,15.4
		c-2.8,4.6-6.6,8.2-11.4,10.8s-10.2,3.9-16.3,3.9C262.8,169.2,257.3,167.9,252.5,165.3z M278.1,155.4c2.8-1.6,4.9-3.8,6.5-6.6
		s2.4-6,2.4-9.6s-0.8-6.8-2.4-9.6s-3.8-5-6.5-6.6c-2.8-1.6-5.9-2.4-9.3-2.4s-6.5,0.8-9.3,2.4s-4.9,3.8-6.5,6.6
		c-1.6,2.8-2.4,6-2.4,9.6s0.8,6.8,2.4,9.6s3.8,5,6.5,6.6c2.8,1.6,5.9,2.4,9.3,2.4C272.2,157.7,275.3,156.9,278.1,155.4z"/>
	<path class="st3" d="M364.1,110.1v58.1h-11l-29-35.3v35.3h-13.3v-58.1h11.1l28.9,35.3v-35.3C350.8,110.1,364.1,110.1,364.1,110.1z"
		/>
	<path class="st3" d="M377.9,110.1h13.5v47.2h29.2v11H378v-58.2H377.9z"/>
	<path class="st3" d="M428,110.1h13.5v58.1H428V110.1z"/>
	<path class="st3" d="M508.6,110.1v58.1h-11l-29-35.3v35.3h-13.3v-58.1h11.1l28.9,35.3v-35.3C495.3,110.1,508.6,110.1,508.6,110.1z"
		/>
	<path class="st3" d="M567.4,157.4v10.8h-45v-58.1h43.9v10.8h-30.6v12.6h27V144h-27v13.5h31.7V157.4z"/>
</g>
</svg>
