<?xml version="1.0" encoding="utf-8"?>
<!-- Generator: Adobe Illustrator 24.0.1, SVG Export Plug-In . SVG Version: 6.00 Build 0)  -->
<svg version="1.1" id="Layer_1" xmlns="http://www.w3.org/2000/svg" xmlns:xlink="http://www.w3.org/1999/xlink" x="0px" y="0px"
	 viewBox="0 0 200 200" style="enable-background:new 0 0 200 200;" xml:space="preserve">
<style type="text/css">
	.st0{fill:#FFFFFF;fill-opacity:0;}
	.st1{fill:none;stroke:#57ABFF;stroke-width:10;stroke-linecap:round;stroke-linejoin:round;stroke-miterlimit:10;}
</style>
<g id="Layer_1_1_">
	<rect class="st0" width="200" height="200"/>
</g>
<g id="Layer_2_1_">
	<g id="XMLID_1_">
		<g id="XMLID_2_">
			<g>
				<g id="XMLID_3_">
					<g id="XMLID_7_">
						<path id="XMLID_8_" class="st1" d="M100.54,194.83v-36.49c38.63,0,68.61-38.3,53.77-78.95c-5.44-14.94-17.5-26.99-32.54-32.44
							c-40.65-14.72-78.95,15.15-78.95,53.77l0,0H6.44c0-61.56,59.53-109.57,124.08-89.41c28.17,8.85,50.68,31.26,59.43,59.43
							C210.12,135.3,162.1,194.83,100.54,194.83z"/>
					</g>
					<polygon id="XMLID_6_" class="st1" points="100.65,158.55 64.27,158.55 64.27,122.17 64.27,122.17 100.65,122.17 
						100.65,122.17 					"/>
					<polygon id="XMLID_5_" class="st1" points="64.27,186.39 36.42,186.39 36.42,186.39 36.42,158.55 64.27,158.55 					"/>
					<path id="XMLID_4_" class="st1" d="M36.42,158.55H13.05l0,0v-23.37l0,0h23.37l0,0C36.42,135.18,36.42,158.55,36.42,158.55z"/>
				</g>
			</g>
		</g>
	</g>
</g>
</svg>
