<?xml version="1.0" encoding="utf-8"?>
<!-- Generator: Adobe Illustrator 24.0.1, SVG Export Plug-In . SVG Version: 6.00 Build 0)  -->
<svg version="1.1" id="Layer_1" xmlns="http://www.w3.org/2000/svg" xmlns:xlink="http://www.w3.org/1999/xlink" x="0px" y="0px"
	 viewBox="0 0 200 200" style="enable-background:new 0 0 200 200;" xml:space="preserve">
<style type="text/css">
	.st0{fill:#FFFFFF;fill-opacity:0;}
	.st1{fill:none;stroke:#81C69D;stroke-width:10;stroke-linecap:round;stroke-linejoin:round;stroke-miterlimit:10;}
	.st2{fill:none;stroke:#57ABFF;stroke-width:10;stroke-linecap:round;stroke-linejoin:round;stroke-miterlimit:10;}
</style>
<g id="Layer_1_1_">
	<rect class="st0" width="200" height="200"/>
</g>
<circle class="st1" cx="101.73" cy="32.88" r="22.55"/>
<path class="st1" d="M108.82,71.04H95.49c-19.67,0-35.61,15.94-35.61,35.61v3.85h84.55v-3.85
	C144.43,86.98,128.49,71.04,108.82,71.04z"/>
<circle class="st2" cx="100.05" cy="178.31" r="16.48"/>
<line class="st2" x1="100.05" y1="133" x2="100.05" y2="161.83"/>
<circle class="st2" cx="23.35" cy="166.06" r="16.48"/>
<line class="st2" x1="41.8" y1="124.68" x2="30.06" y2="151.01"/>
<circle class="st2" cx="177.69" cy="167.3" r="16.48"/>
<line class="st2" x1="159.24" y1="125.92" x2="170.98" y2="152.25"/>
</svg>
