<?xml version="1.0" encoding="UTF-8"?>
<!-- Generator: Adobe Illustrator 22.0.1, SVG Export Plug-In . SVG Version: 6.00 Build 0)  -->
<svg version="1.1" id="Layer_1" xmlns="http://www.w3.org/2000/svg" xmlns:xlink="http://www.w3.org/1999/xlink" x="0px" y="0px" viewBox="0 0 500 500" style="enable-background:new 0 0 500 500;" xml:space="preserve">
<style type="text/css">
	.st0{fill:#FFFFFF;fill-opacity:0;}
	.st1{opacity:0.32;enable-background:new    ;}
	.st2{fill:#FFFFFF;}
</style>
<title>Asset 3ldpi</title>
<g id="Layer_2_1_">
	<g id="Layer_1-2">
		<rect class="st0" width="500" height="500"/>
		<circle class="st1" cx="250" cy="250" r="232.8"/>
		<path class="st2" d="M250,2.2C113.2,2.2,2.2,113.2,2.2,250s111,247.8,247.8,247.8s247.8-111,247.8-247.8S386.8,2.2,250,2.2z     M250,482.8C121.4,482.8,17.2,378.6,17.2,250S121.4,17.2,250,17.2S482.8,121.4,482.8,250S378.6,482.8,250,482.8z"/>
		<path class="st2" d="M173.1,255.9c0-32.3,0-64.6,0-96.9c0-8.5,10.3-14.5,18.1-10.3c10,5.4,19.8,11.3,29.7,17    c16.8,9.6,33.5,19.2,50.3,28.8c15.8,9.1,31.6,18.4,47.4,27.5c12.5,7.2,25,14.4,37.7,21.4c6.6,3.7,9.2,7.9,8.6,15.2    c-0.4,5.2-4.4,7.8-8.2,10c-28,16.3-56.1,32.5-84.2,48.7c-20.6,11.8-41.4,23.6-62.1,35.4c-5.9,3.4-11.7,7-17.8,10.1    c-9.9,5.1-19.4-1.1-19.4-12.3C173.2,318.9,173.2,287.3,173.1,255.9L173.1,255.9L173.1,255.9z"/>
	</g>
</g>
</svg>