<?xml version="1.0" encoding="utf-8"?>
<!-- Generator: Adobe Illustrator 22.0.1, SVG Export Plug-In . SVG Version: 6.00 Build 0)  -->
<svg version="1.1" id="Layer_1" xmlns="http://www.w3.org/2000/svg" xmlns:xlink="http://www.w3.org/1999/xlink" x="0px" y="0px"
	 viewBox="0 0 1000 1000" style="enable-background:new 0 0 1000 1000;" xml:space="preserve">
<style type="text/css">
	.st0{fill:#FFFFFF;}
</style>
<g>
	<g>
		<polygon class="st0" points="482,286.1 482,547.8 649.4,547.8 649.4,501.5 528.3,501.5 528.3,286.1 		"/>
		<path class="st0" d="M931.4,496c0-219.1-178.5-397.6-398.5-397.6c-196.9,0-360.6,145.2-392,331.9H77.1l110,189.5l113.7-189.5
			h-65.6c30.5-137.8,152.6-239.5,298.7-239.5c168.3,0,306,136.8,306,306c0,146.1-104.5,268.1-239.5,298.7v94.3
			C787.2,856.6,931.4,692.9,931.4,496z"/>
		<path class="st0" d="M145.5,846.4l29.6-31.4c19.4-20.3,32.4-36.1,38.8-46.2c7.4-10.2,10.2-22.2,10.2-36.1
			c0-20.3-6.5-36.1-20.3-48.1c-12.9-12-31.4-17.6-55.5-17.6c-22.2,0-40.7,7.4-53.6,21.3c-13.9,13.9-20.3,31.4-19.4,50.9v0.9h49
			c0-11.1,1.8-18.5,6.5-25c4.6-6.5,10.2-10.2,17.6-10.2c8.3,0,14.8,2.8,18.5,7.4c4.6,4.6,6.5,11.1,6.5,19.4c0,5.5-1.8,12.9-6.5,20.3
			c-3.7,8.3-10.2,16.6-19.4,26.8l-67.5,74.9v33.3h149.8v-40.7H145.5C145.5,847.3,145.5,846.4,145.5,846.4z"/>
		<path class="st0" d="M367.4,671.7h-49v-0.9l-86.9,139.6l2.8,30.5h84.1v46.2h49v-46.2h23.1v-37h-23.1V671.7z M318.4,803.9h-42.5
			l37-61.9l4.6-6.5h1.8v68.4C319.3,803.9,318.4,803.9,318.4,803.9z"/>
		<path class="st0" d="M554.2,887.1v-93.4c0-6.5,0-12.9-0.9-19.4c-1.8-14.8-5.5-26.8-12.9-35.1c-9.2-12-22.2-17.6-38.8-17.6
			c-8.3,0-15.7,1.8-22.2,6.5c-7.4,3.7-13.9,9.2-17.6,16.6v-75.8h-51.8v218.2h51.8V769.7c0-2.8,4.6-4.6,8.3-6.5s7.4-1.8,12-1.8
			c7.4,0,12.9,2.8,16.6,7.4c3.7,4.6,5.5,12.9,5.5,25v93.4h17.6L554.2,887.1L554.2,887.1z"/>
	</g>
</g>
</svg>
